# Blender v2.82 (sub 7) OBJ File: ''
# www.blender.org
o Murray_Cube.001
v -217.452469 245.692017 207.739334
v 94.370689 84.556053 -137.473755
v 197.441696 243.847595 207.228958
v -217.452423 -0.393662 207.739288
v -216.411346 243.609833 -206.319489
v -217.452423 -0.393594 -208.410294
v 197.441742 -2.237979 -207.228912
v 197.441742 -2.238047 207.228912
v 197.441696 243.933350 -207.228867
v -217.452469 243.933228 207.228958
v 197.441696 243.933289 207.228958
v -217.452469 243.933289 -207.228867
v 197.441742 -2.152301 -207.228912
v -217.452423 -2.152370 -207.228912
v 197.441742 -2.152369 207.228912
v -217.452423 -2.152438 207.228912
v 81.778595 333.982239 490.084137
v -64.285423 333.982330 -63.500210
v 81.778595 333.982330 -63.500210
v 81.778580 411.100830 -63.500195
v 81.778580 411.100739 490.084137
v -64.285423 333.982239 490.084137
v 80.704750 333.971283 -213.249390
v 222.591278 407.442017 -211.673279
v 222.591278 333.389771 -211.673279
v 222.591278 333.389679 390.001770
v 80.704735 407.441895 390.001770
v 80.704750 333.971191 367.842804
v 80.704735 407.441986 -211.673279
v 312.000061 -4.534338 490.106323
v -527.301147 -4.534360 -212.276184
v 312.000061 -4.534223 -212.276184
v 76.688141 46.265495 -213.002411
v 308.917328 -138.965927 -213.002411
v 310.575623 50.150414 -213.002380
v 79.853958 -142.831512 -445.102875
v 79.853958 -142.831558 -213.002441
v -128.488174 106.576424 -210.821838
v -527.743652 -2.053267 -210.821854
v -128.488159 -2.053202 -210.821854
v -527.743652 -2.053236 -402.083344
v -128.488159 -2.053170 -402.083344
v 90.414383 -4.712460 -211.069733
v 311.196625 -141.177109 -211.069763
v 90.414406 -141.177139 -211.069763
v 311.196594 -4.712426 -211.069733
v 311.196625 -141.177124 -134.106323
v 311.196594 -4.712438 -134.106293
v 90.414406 -141.177155 -134.106323
v 90.414383 -4.712472 -134.106293
v 176.802277 -3.648175 -211.521164
v 176.802307 -142.160065 384.397888
v 176.802307 -142.159973 -211.521194
v -427.459747 -142.160080 -211.521194
v -427.459778 -3.648372 384.397919
v 176.802277 -3.648273 384.397919
v 80.274544 -141.861542 490.716248
v -61.761059 -141.861526 177.489914
v 80.274544 -141.861496 177.489914
v -61.761150 410.028687 490.716339
v -61.761059 -141.861572 490.716248
v -61.761150 410.028748 177.490005
v 80.274452 410.028748 177.490005
v 80.274452 410.028687 490.716339
v 38.064034 -141.816681 -169.604645
v 200.711716 -4.619720 -169.604614
v 200.711746 -141.816650 -169.604645
v 74.706375 -5.710292 -183.940323
v 74.706398 -142.907242 -183.940353
v -87.941315 -142.907272 -183.940353
v -87.941338 -5.710319 -183.940323
v 38.064011 -4.619753 -134.723206
v 199.085052 -141.314148 -209.089935
v 311.915283 -3.779052 -211.233322
v 311.915314 -141.314133 -211.233353
v 199.085052 -141.314178 -28.987862
v 201.048477 -4.273268 -134.829315
v 311.915314 -141.314163 -31.131268
v 311.915283 -3.779081 -31.131245
v 199.085022 -3.779099 -28.987839
v 311.910248 -141.613312 487.806213
v 279.280914 -141.613312 456.299530
v 311.910248 -141.613312 456.299530
v 311.910217 -4.386391 456.299561
v 279.280884 -4.386402 487.806244
v 311.910217 -4.386396 487.806244
v 313.103699 -141.754776 384.900421
v 279.391907 -141.754776 352.647949
v 313.103699 -141.754776 352.647949
v 313.103668 -4.553015 352.647980
v 279.391876 -4.553027 384.900452
v 313.103668 -4.553021 384.900452
v 310.258453 -143.193817 254.719406
v 277.147461 -143.193802 221.502701
v 310.258453 -143.193802 221.502701
v 310.258423 -4.828750 221.502762
v 277.147430 -4.828763 254.719437
v 310.258423 -4.828755 254.719437
v 311.766541 -142.199493 116.929520
v 278.690704 -142.199493 83.677422
v 311.766541 -142.199493 83.677422
v 311.766510 -0.868257 83.677444
v 278.690674 -0.868268 116.929543
v 311.766510 -0.868262 116.929543
v -492.918732 -142.199677 486.902863
v -525.994629 -142.199692 453.650757
v -492.918732 -142.199677 453.650757
v 147.941208 -0.868344 455.337006
v 181.017059 -142.199570 455.336975
v 147.941238 -142.199570 455.336975
v 181.017059 -142.199570 488.589020
v 181.017029 -0.868338 455.337006
v 147.941208 -0.868350 488.589050
v 181.017029 -0.868344 488.589050
v -391.950653 -142.199661 488.086853
v -425.026489 -142.199677 454.834808
v -391.950653 -142.199661 454.834808
v -391.950684 -0.868432 454.834839
v -425.026520 -0.868443 488.086884
v -391.950684 -0.868438 488.086884
v -283.499573 -142.199646 486.902802
v -316.575378 -142.199646 453.650757
v -283.499573 -142.199646 453.650757
v -283.499603 -0.868414 453.650787
v -316.575409 -0.868425 486.902832
v -283.499603 -0.868419 486.902832
v -128.935028 -142.199478 -370.495697
v -162.010834 -142.199493 -403.747772
v -128.935028 -142.199478 -403.747772
v -128.935059 -0.868249 -403.747742
v -162.010864 -0.868260 -370.495667
v -128.935059 -0.868255 -370.495667
v -176.154968 -142.199631 486.902802
v -209.230789 -142.199631 453.650757
v -176.154968 -142.199631 453.650757
v -493.823608 -142.199661 386.343292
v -526.899536 -142.199677 353.091248
v -493.823608 -142.199661 353.091248
v -493.823608 -142.199646 273.036865
v -526.899536 -142.199661 239.784790
v -493.823608 -142.199646 239.784790
v -493.823608 -142.199631 146.906265
v -526.899536 -142.199631 113.654205
v -493.823608 -142.199615 113.654205
v -493.823608 -142.199600 23.532671
v -526.899536 -142.199615 -9.719402
v -493.823608 -142.199600 -9.719402
v -494.848328 -142.199570 -211.617966
v -527.924255 -142.199570 -244.870026
v -494.848328 -142.199554 -244.870026
v -493.683624 -142.199585 -90.707542
v -526.759583 -142.199600 -123.959618
v -493.683624 -142.199585 -123.959618
v -494.848328 -142.199539 -367.378052
v -527.924255 -142.199554 -400.630127
v -494.848328 -142.199539 -400.630127
v -382.742126 -142.199524 -367.544464
v -415.817932 -142.199524 -400.796539
v -382.742126 -142.199524 -400.796539
v -260.265442 -142.199509 -367.544464
v -293.341248 -142.199509 -400.796539
v -260.265442 -142.199509 -400.796539
v 220.573853 -144.703522 387.382721
v 78.538246 -139.840439 -214.243042
v 220.573853 -144.703430 -216.784866
v 220.573761 407.186951 -213.752975
v 220.573761 407.186859 390.414612
v 78.538155 405.772583 -213.753006
v 78.538155 405.772430 392.277679
v 307.380157 330.526031 469.075165
v 307.380188 109.941162 350.815308
v 307.380188 109.941139 469.075134
v 347.166168 109.941139 469.075134
v 347.166168 109.941162 350.815308
v 307.380157 330.526062 328.779083
v 307.380188 109.941185 210.519135
v 307.380188 109.941162 328.779053
v 347.166168 109.941162 328.779053
v 347.166168 109.941185 210.519135
v 307.380157 330.526093 191.317261
v 307.380188 109.941200 73.057281
v 307.380188 109.941185 191.317215
v 347.166168 109.941185 191.317215
v 347.166168 109.941200 73.057281
v 307.380157 330.526123 52.438244
v 307.380188 109.941223 -65.821716
v 307.380188 109.941208 52.438210
v 347.166168 109.941208 52.438210
v 347.166168 109.941223 -65.821716
v -520.571045 329.979706 383.538452
v -520.570984 145.174026 472.453644
v -520.570984 145.174042 383.538422
v -559.752380 145.174042 383.538422
v -520.571045 329.979736 264.468140
v -520.570984 145.174042 353.383270
v -520.570984 145.174057 264.468109
v -559.752380 145.174057 264.468109
v -520.571045 329.979736 155.203644
v -520.570984 145.174057 244.118744
v -520.570984 145.174072 155.203613
v -559.752380 145.174072 155.203613
v -520.862000 331.243134 38.934971
v -520.861938 146.437454 127.850090
v -520.861938 146.437469 38.934940
v -560.043396 146.437469 38.934940
v -520.862000 331.243134 -75.932884
v -520.861938 146.437469 12.982265
v -520.861938 146.437485 -75.932915
v -560.043396 146.437485 -75.932915
v -520.862000 331.243164 -187.999054
v -520.861938 146.437485 -99.083954
v -520.861938 146.437500 -187.999084
v -560.043396 146.437500 -187.999084
v 0.374725 -1.486404 -0.530449
v 2.374726 -1.486404 -2.530450
v 0.374725 -1.486404 -2.530450
v -527.743652 106.576393 -402.083313
v 76.688141 46.265533 -445.102844
v -128.488174 106.576454 -402.083313
v -529.047241 330.932556 -213.503006
v 78.973167 152.936920 -214.154297
v -529.047180 152.936813 -214.154297
v -527.241333 332.599518 492.381287
v -61.503689 154.602798 492.162903
v -527.241272 154.602722 492.162903
v 81.536865 332.894775 491.064392
v 311.465912 157.362915 490.846008
v 81.536896 157.362885 490.846008
v 310.575623 50.150452 -445.102844
v -126.198311 107.173317 -218.405869
v 77.979088 -3.076643 -215.963608
v -126.198296 -3.076675 -215.963608
v -427.459778 -3.648274 -211.521164
v -427.459747 -142.160172 384.397888
v 220.770462 -141.364319 388.819092
v 221.237122 -5.309758 -30.336868
v 220.770462 -141.364258 -30.336891
v -528.405701 108.525330 488.554657
v -528.115479 -3.345313 -208.223846
v -528.827637 -2.902296 488.791687
v -527.743652 106.576363 -210.821838
v 347.166138 330.526093 210.519180
v 347.166138 330.526123 73.057320
v 347.166138 330.526123 -65.821678
v -559.752441 329.979675 472.453674
v -559.752380 145.174026 472.453644
v -560.043457 331.243134 12.982296
v -560.043396 146.437469 12.982265
v -64.285439 411.100739 490.084137
v -527.301208 333.333679 -212.276123
v 312.000000 333.333832 -212.276123
v 312.000000 333.333710 490.106384
v -527.301147 -4.534475 490.106323
v -527.301208 333.333557 490.106384
v 308.917328 -138.965881 -445.102875
v 279.280884 -4.386396 456.299561
v 279.280914 -141.613312 487.806213
v 279.391876 -4.553021 352.647980
v 279.391907 -141.754776 384.900421
v 277.147430 -4.828758 221.502762
v 277.147461 -143.193817 254.719406
v 278.690674 -0.868263 83.677444
v 278.690704 -142.199493 116.929520
v -525.994629 -0.868454 453.650787
v -492.918762 -0.868448 453.650787
v -492.918762 -0.868453 486.902893
v -525.994629 -142.199692 486.902863
v -525.994629 -0.868459 486.902893
v 147.941238 -142.199570 488.589020
v -425.026520 -0.868437 454.834839
v -425.026489 -142.199677 488.086853
v -316.575409 -0.868420 453.650787
v -316.575378 -142.199646 486.902802
v -162.010864 -0.868254 -403.747742
v -162.010834 -142.199493 -370.495697
v -209.230820 -0.868402 453.650787
v -176.154999 -0.868397 453.650787
v -176.154999 -0.868402 486.902832
v -209.230789 -142.199631 486.902802
v -209.230820 -0.868407 486.902832
v -526.899536 -0.868438 353.091278
v -493.823639 -0.868432 353.091278
v -493.823639 -0.868437 386.343323
v -526.899536 -142.199677 386.343292
v -526.899536 -0.868443 386.343323
v -526.899536 -0.868419 239.784821
v -493.823639 -0.868413 239.784821
v -493.823639 -0.868418 273.036896
v -526.899536 -142.199661 273.036865
v -526.899536 -0.868424 273.036896
v -526.899536 -0.868399 113.654228
v -493.823639 -0.868393 113.654228
v -493.823639 -0.868398 146.906296
v -526.899536 -142.199646 146.906265
v -526.899536 -0.868404 146.906296
v -526.899536 -0.868378 -9.719379
v -493.823639 -0.868372 -9.719379
v -493.823639 -0.868378 23.532694
v -526.899536 -142.199615 23.532671
v -526.899536 -0.868384 23.532694
v -527.924255 -0.868340 -244.869995
v -494.848358 -0.868335 -244.869995
v -494.848358 -0.868341 -211.617935
v -527.924255 -142.199585 -211.617966
v -527.924255 -0.868346 -211.617935
v -526.759583 -0.868360 -123.959595
v -493.683655 -0.868354 -123.959595
v -493.683655 -0.868359 -90.707520
v -526.759583 -142.199600 -90.707542
v -526.759583 -0.868365 -90.707520
v -527.924255 -0.868315 -400.630096
v -494.848358 -0.868310 -400.630096
v -494.848358 -0.868315 -367.378021
v -527.924255 -142.199554 -367.378052
v -527.924255 -0.868320 -367.378021
v -415.817963 -0.868297 -400.796509
v -382.742157 -0.868291 -400.796509
v -382.742157 -0.868296 -367.544434
v -415.817932 -142.199524 -367.544464
v -415.817963 -0.868302 -367.544434
v -293.341278 -0.868277 -400.796509
v -260.265472 -0.868271 -400.796509
v -260.265472 -0.868276 -367.544434
v -293.341248 -142.199509 -367.544464
v -293.341278 -0.868282 -367.544434
v 78.538246 -139.840469 391.330627
v 307.380157 330.526062 350.815338
v 347.166138 330.526062 350.815338
v 347.166138 330.526031 469.075165
v 307.380157 330.526093 210.519180
v 347.166138 330.526062 328.779083
v 307.380157 330.526123 73.057320
v 347.166138 330.526093 191.317261
v 307.380157 330.526123 -65.821678
v 347.166138 330.526123 52.438244
v -559.752441 329.979706 383.538452
v -520.571045 329.979675 472.453674
v -559.752441 329.979736 264.468140
v -520.571045 329.979706 353.383301
v -559.752380 145.174042 353.383270
v -559.752441 329.979706 353.383301
v -559.752441 329.979736 155.203644
v -520.571045 329.979736 244.118774
v -559.752380 145.174057 244.118744
v -559.752441 329.979736 244.118774
v -560.043457 331.243134 38.934971
v -520.862000 331.243103 127.850121
v -560.043396 146.437454 127.850090
v -560.043457 331.243103 127.850121
v -560.043457 331.243134 -75.932884
v -520.862000 331.243134 12.982296
v -560.043457 331.243164 -187.999054
v -520.862000 331.243164 -99.083923
v -560.043396 146.437485 -99.083954
v -560.043457 331.243164 -99.083923
v 81.695259 -140.830261 490.982849
v 81.668488 -4.681284 384.571838
v 81.695259 -140.830246 384.571808
v 81.022202 117.184395 490.639893
v 311.514221 -4.929593 490.421539
v 81.022224 -4.929633 490.421539
v -526.203552 117.184303 490.991180
v -300.782898 -4.929694 490.772827
v -526.203552 -4.929731 490.772827
v -299.568970 117.184334 490.695557
v -64.350166 -4.929654 490.477203
v -299.568939 -4.929695 490.477203
v 312.302765 -142.844681 -31.422066
v 312.769440 -3.415175 -119.100258
v 312.302765 -142.844666 -119.100281
v -64.285439 411.100830 -63.500195
v 312.986145 -2.501983 355.132507
v 313.476990 111.895760 -119.798347
v 313.258698 -2.501905 -119.798981
v -62.024471 -141.187897 490.233795
v -62.051247 -5.038913 383.822815
v -62.024471 -141.187881 383.822784
v 222.591278 407.441925 390.001770
v 2.374726 -1.486404 -0.530449
v 78.973137 330.932648 -213.503006
v -61.503716 332.599609 492.381287
v 311.465881 332.894836 491.064392
v 77.979073 107.173355 -218.405869
v 221.237122 -5.309826 388.819122
v -527.693542 108.082291 -208.460861
v 81.668488 -4.681302 490.982880
v 311.514191 117.184433 490.639893
v -300.782928 117.184341 490.991180
v -64.350189 117.184372 490.695557
v 312.769440 -3.415189 -31.422043
v 313.204437 111.895676 355.133118
v -62.051247 -5.038930 490.233826
v -67.129112 -140.721497 116.227257
v -64.079994 -141.866028 491.038879
v 80.654358 -141.865997 491.038879
v 37.414970 -140.721481 116.227257
v 64.288559 409.658569 396.978302
v -47.631165 409.658569 396.978302
v -79.813324 94.707298 -54.128216
v -70.910812 19.192068 -16.808605
vt 0.625000 0.750000
vt 0.875000 0.500000
vt 0.625000 0.500000
vt 0.375000 0.750000
vt 0.625000 1.000000
vt 0.375000 0.000000
vt 0.625000 0.250000
vt 0.625000 0.000000
vt 0.125000 0.500000
vt 0.375000 0.500000
vt 0.375000 0.250000
vt 0.875000 0.500000
vt 0.625000 0.750000
vt 0.625000 0.500000
vt 0.625000 0.000000
vt 0.375000 0.250000
vt 0.375000 0.000000
vt 0.375000 0.500000
vt 0.125000 0.750000
vt 0.125000 0.500000
vt 0.375000 0.750000
vt 0.625000 0.250000
vt 0.076250 0.728471
vt 0.123942 0.908891
vt 0.076250 0.908891
vt 0.417426 0.615762
vt 0.452361 0.364425
vt 0.452361 0.615762
vt 0.875000 0.500000
vt 0.625000 0.750000
vt 0.625000 0.500000
vt 0.693483 1.000000
vt 0.751289 0.928299
vt 0.751289 1.000000
vt 0.930022 0.378533
vt 0.987828 0.306832
vt 0.987828 0.378533
vt 0.878493 0.425458
vt 0.949984 0.612029
vt 0.878493 0.612029
vt 0.125000 0.500000
vt 0.375000 0.750000
vt 0.125000 0.750000
vt 0.229579 0.273252
vt 0.459157 0.000000
vt 0.459157 0.273252
vt 0.375000 0.500000
vt 0.625000 0.750000
vt 0.375000 0.750000
vt 0.103768 0.805328
vt 0.000000 0.699950
vt 0.103768 0.699950
vt 0.625000 0.500000
vt 0.375000 0.750000
vt 0.375000 0.500000
vt 0.707586 0.731084
vt 0.645071 0.861070
vt 0.645071 0.731084
vt 0.105377 0.765832
vt 0.226201 0.892112
vt 0.105377 0.892112
vt 0.625000 0.250000
vt 0.375000 0.500000
vt 0.375000 0.250000
vt 0.625000 0.500000
vt 0.375000 0.750000
vt 0.625000 0.750000
vt 0.375000 1.000000
vt 0.125000 0.750000
vt 0.125000 0.500000
vt 0.533585 0.915885
vt 0.575748 0.794706
vt 0.575748 0.915885
vt 0.590230 0.615413
vt 0.462431 0.794706
vt 0.462431 0.615413
vt 0.375000 0.500000
vt 0.125000 0.750000
vt 0.125000 0.500000
vt 0.875000 0.500000
vt 0.625000 0.750000
vt 0.625000 0.500000
vt 0.625000 0.000000
vt 0.375000 0.250000
vt 0.375000 0.000000
vt 0.999912 0.522389
vt 0.000088 0.065958
vt 0.000088 0.522389
vt 0.625000 0.750000
vt 0.375000 1.000000
vt 0.375000 0.750000
vt 0.768550 0.273252
vt 0.870930 0.576187
vt 0.768550 0.576187
vt 0.875000 0.500000
vt 0.625000 0.750000
vt 0.625000 0.500000
vt 0.375000 0.000000
vt 0.625000 0.250000
vt 0.375000 0.250000
vt 0.334633 0.794706
vt 0.461218 0.932623
vt 0.334633 0.932623
vt 0.821281 0.820445
vt 0.910291 0.947403
vt 0.821281 0.947403
vt 0.625000 0.750000
vt 0.375000 1.000000
vt 0.375000 0.750000
vt 0.375000 0.500000
vt 0.125000 0.750000
vt 0.125000 0.500000
vt 0.625000 0.500000
vt 0.875000 0.750000
vt 0.375000 0.000000
vt 0.625000 0.250000
vt 0.375000 0.250000
vt 0.375000 0.750000
vt 0.625000 1.000000
vt 0.375000 1.000000
vt 0.375000 0.500000
vt 0.125000 0.750000
vt 0.125000 0.500000
vt 0.625000 0.500000
vt 0.875000 0.750000
vt 0.625000 0.750000
vt 0.375000 0.500000
vt 0.125000 0.750000
vt 0.125000 0.500000
vt 0.875000 0.500000
vt 0.625000 0.750000
vt 0.625000 0.500000
vt 0.375000 0.500000
vt 0.125000 0.750000
vt 0.125000 0.500000
vt 0.875000 0.500000
vt 0.625000 0.750000
vt 0.625000 0.500000
vt 0.375000 0.500000
vt 0.125000 0.750000
vt 0.125000 0.500000
vt 0.875000 0.500000
vt 0.625000 0.750000
vt 0.625000 0.500000
vt 0.375000 0.500000
vt 0.125000 0.750000
vt 0.125000 0.500000
vt 0.875000 0.500000
vt 0.625000 0.750000
vt 0.625000 0.500000
vt 0.375000 0.500000
vt 0.125000 0.750000
vt 0.125000 0.500000
vt 0.533259 0.522108
vt 0.548242 0.586275
vt 0.533259 0.586275
vt 0.375000 0.500000
vt 0.125000 0.750000
vt 0.125000 0.500000
vt 0.875000 0.500000
vt 0.625000 0.750000
vt 0.625000 0.500000
vt 0.375000 0.500000
vt 0.125000 0.750000
vt 0.125000 0.500000
vt 0.875000 0.500000
vt 0.625000 0.750000
vt 0.625000 0.500000
vt 0.375000 0.500000
vt 0.125000 0.750000
vt 0.125000 0.500000
vt 0.875000 0.500000
vt 0.625000 0.750000
vt 0.625000 0.500000
vt 0.375000 0.500000
vt 0.125000 0.750000
vt 0.125000 0.500000
vt 0.875000 0.500000
vt 0.625000 0.750000
vt 0.625000 0.500000
vt 0.375000 0.500000
vt 0.125000 0.750000
vt 0.125000 0.500000
vt 0.375000 0.500000
vt 0.125000 0.750000
vt 0.125000 0.500000
vt 0.375000 0.500000
vt 0.125000 0.750000
vt 0.125000 0.500000
vt 0.375000 0.500000
vt 0.125000 0.750000
vt 0.125000 0.500000
vt 0.375000 0.500000
vt 0.125000 0.750000
vt 0.125000 0.500000
vt 0.375000 0.500000
vt 0.125000 0.750000
vt 0.125000 0.500000
vt 0.375000 0.500000
vt 0.125000 0.750000
vt 0.125000 0.500000
vt 0.375000 0.500000
vt 0.125000 0.750000
vt 0.125000 0.500000
vt 0.375000 0.500000
vt 0.125000 0.750000
vt 0.125000 0.500000
vt 0.375000 0.500000
vt 0.125000 0.750000
vt 0.125000 0.500000
vt 0.625000 0.000000
vt 0.375000 0.250000
vt 0.375000 0.000000
vt 0.198281 0.576188
vt 0.000000 0.273904
vt 0.198281 0.273252
vt 0.850845 0.000000
vt 0.804469 0.197709
vt 0.804468 0.000000
vt 0.625000 0.750000
vt 0.375000 1.000000
vt 0.375000 0.750000
vt 0.421391 0.497776
vt 0.439414 0.551468
vt 0.421391 0.551468
vt 0.625000 0.750000
vt 0.375000 1.000000
vt 0.375000 0.750000
vt 0.403368 0.497776
vt 0.421391 0.551468
vt 0.403368 0.551468
vt 0.625000 0.750000
vt 0.375000 1.000000
vt 0.375000 0.750000
vt 0.470384 0.532235
vt 0.488407 0.585927
vt 0.470384 0.585927
vt 0.625000 0.750000
vt 0.375000 1.000000
vt 0.375000 0.750000
vt 0.385412 0.496310
vt 0.403435 0.550002
vt 0.385412 0.550002
vt 0.625000 0.250000
vt 0.375000 0.500000
vt 0.375000 0.250000
vt 0.452361 0.564724
vt 0.470110 0.605093
vt 0.452361 0.605093
vt 0.625000 0.250000
vt 0.375000 0.500000
vt 0.375000 0.250000
vt 0.504821 0.485207
vt 0.522570 0.525576
vt 0.504821 0.525576
vt 0.625000 0.250000
vt 0.375000 0.500000
vt 0.375000 0.250000
vt 0.391715 0.543470
vt 0.409464 0.583839
vt 0.391715 0.583839
vt 0.625000 0.250000
vt 0.375000 0.500000
vt 0.375000 0.250000
vt 0.385138 0.550002
vt 0.402887 0.590371
vt 0.385138 0.590371
vt 0.625000 0.250000
vt 0.375000 0.500000
vt 0.375000 0.250000
vt 0.367389 0.550002
vt 0.385138 0.590371
vt 0.367389 0.590371
vt 0.625000 0.250000
vt 0.375000 0.500000
vt 0.375000 0.250000
vt 0.438867 0.591837
vt 0.421117 0.551468
vt 0.438867 0.551468
vt 1.000000 0.000000
vt 0.000000 1.000000
vt 0.000000 0.000000
vt 0.819453 0.181269
vt 0.868662 0.000000
vt 0.868662 0.181269
vt 0.910475 0.999763
vt 0.996136 0.894385
vt 0.996136 0.999763
vt 0.309862 0.846731
vt 0.260653 0.933567
vt 0.260653 0.846731
vt 0.624288 0.551422
vt 0.704920 0.275371
vt 0.704920 0.551422
vt 0.849066 0.762875
vt 0.929699 0.551422
vt 0.929699 0.762875
vt 0.761161 0.666763
vt 0.681645 0.771155
vt 0.681645 0.666763
vt 0.000317 0.999102
vt 0.085987 0.893725
vt 0.085987 0.999102
vt 0.868662 0.192849
vt 0.918605 0.100150
vt 0.918605 0.192850
vt 0.629617 0.274345
vt 0.692362 0.000000
vt 0.692363 0.274345
vt 0.692363 0.274345
vt 0.755108 0.000000
vt 0.755108 0.274345
vt 0.767666 0.275371
vt 0.704920 0.545928
vt 0.704920 0.275371
vt 0.147113 0.668459
vt 0.085480 0.478155
vt 0.147113 0.478155
vt 0.884715 0.525863
vt 0.935192 0.209481
vt 0.935192 0.525938
vt 0.227871 0.837696
vt 0.178662 0.924532
vt 0.178662 0.837696
vt 0.504131 0.379024
vt 0.557703 0.479173
vt 0.504131 0.479173
vt 0.510512 0.497776
vt 0.456940 0.397626
vt 0.510512 0.397626
vt 0.488217 0.494564
vt 0.541789 0.594714
vt 0.488217 0.594714
vt 0.489038 0.292249
vt 0.529317 0.376154
vt 0.489038 0.376154
vt 0.427365 0.399177
vt 0.467643 0.483081
vt 0.427365 0.483081
vt 0.565967 0.352997
vt 0.531033 0.604334
vt 0.531033 0.352997
vt 0.517639 0.619967
vt 0.551185 0.346796
vt 0.551185 0.619967
vt 0.471234 0.275371
vt 0.318179 0.656428
vt 0.318179 0.275371
vt 0.335977 0.614690
vt 0.489032 0.295796
vt 0.489032 0.614689
vt 0.624288 0.275371
vt 0.471234 0.656427
vt 0.471234 0.275371
vt 0.512700 0.289595
vt 0.359646 0.608489
vt 0.359646 0.289595
vt 0.421586 0.551293
vt 0.507231 0.447268
vt 0.507231 0.553472
vt 0.558240 0.402939
vt 0.495937 0.484709
vt 0.495937 0.402939
vt 0.391715 0.522008
vt 0.340602 0.459565
vt 0.391715 0.459565
vt 0.526075 0.592298
vt 0.511294 0.529995
vt 0.526075 0.529995
vt 0.471062 0.429293
vt 0.485335 0.491596
vt 0.471062 0.491596
vt 0.532961 0.426729
vt 0.518180 0.364425
vt 0.532961 0.364425
vt 0.534867 0.421040
vt 0.549140 0.483343
vt 0.534867 0.483343
vt 0.450347 0.588158
vt 0.435076 0.525866
vt 0.450347 0.525866
vt 0.533064 0.594527
vt 0.518453 0.532235
vt 0.533064 0.532235
vt 0.435076 0.588158
vt 0.419804 0.525866
vt 0.435076 0.525866
vt 0.518180 0.426729
vt 0.532790 0.489020
vt 0.518180 0.489020
vt 0.481501 0.527657
vt 0.496500 0.590477
vt 0.481501 0.590477
vt 0.466454 0.527657
vt 0.481501 0.590477
vt 0.466454 0.590477
vt 0.511499 0.590477
vt 0.496500 0.527657
vt 0.511499 0.527657
vt 0.450347 0.525866
vt 0.465394 0.588686
vt 0.450347 0.588686
vt 0.348146 0.516831
vt 0.363129 0.580997
vt 0.348146 0.580997
vt 0.488133 0.364425
vt 0.503196 0.428592
vt 0.488133 0.428592
vt 0.514444 0.551089
vt 0.499461 0.486923
vt 0.514444 0.486923
vt 0.439414 0.497776
vt 0.454478 0.561942
vt 0.439414 0.561942
vt 0.532106 0.516831
vt 0.547090 0.580997
vt 0.532106 0.580997
vt 0.469541 0.497776
vt 0.484604 0.561942
vt 0.469541 0.561942
vt 0.473007 0.388099
vt 0.458023 0.323932
vt 0.473007 0.323932
vt 0.454478 0.497776
vt 0.469541 0.561942
vt 0.454478 0.561942
vt 0.029676 0.963677
vt 0.036679 0.963800
vt 0.032991 0.999873
vt 0.466424 0.499705
vt 0.481487 0.563871
vt 0.466424 0.563871
vt 0.519815 0.522108
vt 0.534798 0.586275
vt 0.519815 0.586275
vt 0.421235 0.499705
vt 0.436298 0.563871
vt 0.421235 0.563871
vt 0.563226 0.586275
vt 0.548242 0.522108
vt 0.563226 0.522108
vt 0.398131 0.513198
vt 0.413194 0.577364
vt 0.398131 0.577364
vt 0.471062 0.493460
vt 0.456079 0.429293
vt 0.471062 0.429293
vt 0.403159 0.369994
vt 0.418222 0.434161
vt 0.403159 0.434161
vt 0.472369 0.522009
vt 0.487352 0.586175
vt 0.472369 0.586175
vt 0.420273 0.372130
vt 0.435336 0.436297
vt 0.420273 0.436297
vt 0.578209 0.586275
vt 0.563226 0.522108
vt 0.578209 0.522108
vt 0.388096 0.369994
vt 0.403159 0.434161
vt 0.388096 0.434161
vt 0.518276 0.522108
vt 0.533259 0.586275
vt 0.518276 0.586275
vt 0.502465 0.501082
vt 0.517528 0.565248
vt 0.502465 0.565248
vt 0.976921 0.551422
vt 0.991904 0.615589
vt 0.976921 0.615589
vt 0.504821 0.421040
vt 0.519884 0.485207
vt 0.504821 0.485207
vt 0.547090 0.516831
vt 0.562073 0.580997
vt 0.547090 0.580997
vt 0.487402 0.501082
vt 0.502465 0.565248
vt 0.487402 0.565248
vt 0.370569 0.522009
vt 0.385552 0.586175
vt 0.370569 0.586175
vt 0.436298 0.499705
vt 0.451361 0.563871
vt 0.436298 0.563871
vt 0.495785 0.396243
vt 0.480801 0.332076
vt 0.495785 0.332076
vt 0.532591 0.501082
vt 0.547654 0.565248
vt 0.532591 0.565248
vt 0.518180 0.492759
vt 0.503196 0.428592
vt 0.518180 0.428592
vt 0.451361 0.499705
vt 0.466424 0.563871
vt 0.451361 0.563871
vt 0.443040 0.323932
vt 0.458023 0.388099
vt 0.443040 0.388099
vt 0.386330 0.498602
vt 0.401393 0.562768
vt 0.386330 0.562768
vt 0.458304 0.513198
vt 0.473287 0.577365
vt 0.458304 0.577365
vt 0.484604 0.497776
vt 0.499667 0.561942
vt 0.484604 0.561942
vt 0.499461 0.551089
vt 0.484477 0.486923
vt 0.499461 0.486923
vt 0.347822 0.498602
vt 0.362885 0.562768
vt 0.347822 0.562768
vt 0.518453 0.596402
vt 0.503470 0.532235
vt 0.518453 0.532235
vt 0.371267 0.498602
vt 0.386330 0.562768
vt 0.371267 0.562768
vt 0.441096 0.429293
vt 0.456079 0.493460
vt 0.441096 0.493460
vt 0.473482 0.427112
vt 0.488546 0.491279
vt 0.473482 0.491279
vt 0.518180 0.428592
vt 0.503196 0.364425
vt 0.518180 0.364425
vt 0.332759 0.498602
vt 0.347822 0.562768
vt 0.332759 0.562768
vt 0.519884 0.421040
vt 0.534867 0.485207
vt 0.519884 0.485207
vt 0.551744 0.498661
vt 0.566807 0.562827
vt 0.551744 0.562827
vt 0.523158 0.320891
vt 0.538142 0.385057
vt 0.523158 0.385057
vt 0.488407 0.532235
vt 0.503470 0.596402
vt 0.488407 0.596402
vt 0.484477 0.422756
vt 0.499461 0.486923
vt 0.484477 0.486923
vt 0.581870 0.562827
vt 0.566807 0.498661
vt 0.581870 0.498661
vt 0.443320 0.513198
vt 0.458304 0.577365
vt 0.443320 0.577365
vt 0.463414 0.435044
vt 0.478477 0.499210
vt 0.463414 0.499210
vt 0.523158 0.385057
vt 0.508175 0.320891
vt 0.523158 0.320891
vt 0.517528 0.501082
vt 0.532591 0.565248
vt 0.517528 0.565248
vt 0.973245 0.460742
vt 0.988229 0.524909
vt 0.973245 0.524909
vt 0.413902 0.456566
vt 0.428966 0.520732
vt 0.413902 0.520732
vt 0.404821 0.525866
vt 0.419804 0.590033
vt 0.404821 0.590033
vt 0.413194 0.513198
vt 0.428257 0.577364
vt 0.413194 0.577364
vt 0.355585 0.522009
vt 0.370569 0.586175
vt 0.355585 0.586175
vt 0.488133 0.428592
vt 0.503196 0.492759
vt 0.488133 0.492759
vt 0.593192 0.522108
vt 0.608176 0.586275
vt 0.593192 0.586275
vt 0.428257 0.513198
vt 0.443320 0.577364
vt 0.428257 0.577364
vt 0.593192 0.993977
vt 0.578209 0.929810
vt 0.593192 0.929810
vt 0.573134 0.462766
vt 0.588197 0.526933
vt 0.573134 0.526933
vt 0.318179 0.000430
vt 0.565342 0.275148
vt 0.318179 0.275371
vt 0.438851 0.466550
vt 0.456874 0.566699
vt 0.438851 0.566699
vt 0.480428 0.380735
vt 0.426856 0.280586
vt 0.480428 0.280585
vt 0.470384 0.564724
vt 0.452361 0.464574
vt 0.470384 0.464575
vt 0.603937 0.354917
vt 0.621960 0.455066
vt 0.603937 0.455066
vt 0.389290 0.498602
vt 0.371267 0.398452
vt 0.389290 0.398452
vt 0.452361 0.364425
vt 0.470384 0.464575
vt 0.452361 0.464575
vt 0.487071 0.521189
vt 0.469048 0.421040
vt 0.487071 0.421040
vt 0.511294 0.376154
vt 0.529317 0.476303
vt 0.511294 0.476303
vt 0.407268 0.323932
vt 0.425291 0.424081
vt 0.407268 0.424081
vt 0.425291 0.323932
vt 0.443040 0.407837
vt 0.425291 0.407837
vt 0.463052 0.332076
vt 0.480801 0.415981
vt 0.463052 0.415981
vt 0.423346 0.429293
vt 0.441096 0.513198
vt 0.423346 0.513198
vt 0.466728 0.422756
vt 0.484477 0.506661
vt 0.466728 0.506661
vt 0.405025 0.332076
vt 0.445303 0.415981
vt 0.405025 0.415981
vt 0.487071 0.421040
vt 0.504821 0.504945
vt 0.487071 0.504945
vt 0.484477 0.590566
vt 0.466728 0.506661
vt 0.484477 0.506661
vt 0.500859 0.469456
vt 0.541138 0.553361
vt 0.500859 0.553361
vt 0.508175 0.404795
vt 0.490426 0.320891
vt 0.508175 0.320891
vt 0.488133 0.532235
vt 0.470384 0.448330
vt 0.488133 0.448330
vt 0.420273 0.288225
vt 0.460551 0.372130
vt 0.420273 0.372130
vt 0.445303 0.332076
vt 0.463052 0.415981
vt 0.445303 0.415981
vt 0.470384 0.364425
vt 0.488133 0.448330
vt 0.470384 0.448330
vt 0.472677 0.320891
vt 0.490426 0.404795
vt 0.472677 0.404795
vt 0.391715 0.459565
vt 0.409464 0.543470
vt 0.391715 0.543470
vt 0.426450 0.422756
vt 0.466728 0.506661
vt 0.426450 0.506661
vt 0.518276 0.522108
vt 0.566480 0.460294
vt 0.566480 0.522108
vt 0.704921 0.907406
vt 0.760238 0.802759
vt 0.760238 0.907406
vt 0.055318 0.744870
vt 0.000000 0.847215
vt 0.000000 0.744870
vt 0.771087 0.908783
vt 0.826405 0.801990
vt 0.826405 0.908783
vt 0.466454 0.964812
vt 0.506172 0.901509
vt 0.506172 0.964812
vt 0.402323 0.429995
vt 0.367389 0.496310
vt 0.367389 0.429995
vt 0.830779 0.524505
vt 0.766437 0.273937
vt 0.830779 0.273937
vt 0.579172 0.532703
vt 0.514828 0.284344
vt 0.579172 0.282136
vt 0.767666 0.523730
vt 0.832008 0.275371
vt 0.832008 0.525938
vt 0.350189 0.706034
vt 0.402011 0.921661
vt 0.350189 0.921661
vt 0.566480 0.929810
vt 0.614684 0.867996
vt 0.614684 0.929810
vt 0.172712 0.266391
vt 0.106545 0.015054
vt 0.172712 0.015054
vt 0.152156 0.273171
vt 0.087882 0.000000
vt 0.152156 0.000000
vt 0.000000 0.381057
vt 0.318179 0.000000
vt 0.318179 0.381057
vt 0.279274 0.222373
vt 0.174132 0.328563
vt 0.174132 0.222373
vt 0.274604 0.036349
vt 0.187963 0.217618
vt 0.187963 0.036349
vt 0.210819 0.158368
vt 0.228842 0.212059
vt 0.210819 0.212059
vt 0.091364 0.339899
vt 0.073341 0.286206
vt 0.091364 0.286207
vt 0.315390 0.170349
vt 0.297367 0.116657
vt 0.315390 0.116657
vt 0.073341 0.209682
vt 0.055318 0.155990
vt 0.073341 0.155990
vt 0.170206 0.304388
vt 0.187955 0.344757
vt 0.170206 0.344757
vt 0.233607 0.306002
vt 0.215858 0.265633
vt 0.233607 0.265633
vt 0.189441 0.170119
vt 0.207190 0.210488
vt 0.189441 0.210488
vt 0.050511 0.071779
vt 0.032762 0.031410
vt 0.050511 0.031410
vt 0.055318 0.226734
vt 0.073067 0.267103
vt 0.055318 0.267103
vt 0.276786 0.204685
vt 0.259036 0.164316
vt 0.276786 0.164316
vt 0.875000 0.750000
vt 0.375000 1.000000
vt 0.125000 0.750000
vt 0.875000 0.750000
vt 0.123942 0.728471
vt 0.417426 0.364425
vt 0.875000 0.750000
vt 0.693483 0.928299
vt 0.930022 0.306832
vt 0.949984 0.425458
vt 0.375000 0.500000
vt 0.229579 0.000000
vt 0.625000 0.500000
vt 0.000000 0.805328
vt 0.625000 0.750000
vt 0.707586 0.861070
vt 0.226201 0.765832
vt 0.625000 1.000000
vt 0.533585 0.794706
vt 0.590230 0.794706
vt 0.375000 0.750000
vt 0.875000 0.750000
vt 0.625000 0.250000
vt 0.999912 0.059481
vt 0.625000 1.000000
vt 0.870930 0.273252
vt 0.875000 0.750000
vt 0.625000 0.000000
vt 0.461218 0.794706
vt 0.910291 0.820445
vt 0.625000 1.000000
vt 0.875000 0.500000
vt 0.625000 0.000000
vt 0.875000 0.500000
vt 0.375000 0.750000
vt 0.875000 0.750000
vt 0.375000 0.750000
vt 0.875000 0.750000
vt 0.375000 0.750000
vt 0.875000 0.750000
vt 0.375000 0.750000
vt 0.875000 0.750000
vt 0.375000 0.750000
vt 0.548242 0.522108
vt 0.375000 0.750000
vt 0.875000 0.750000
vt 0.375000 0.750000
vt 0.875000 0.750000
vt 0.375000 0.750000
vt 0.875000 0.750000
vt 0.375000 0.750000
vt 0.875000 0.750000
vt 0.375000 0.750000
vt 0.375000 0.750000
vt 0.375000 0.750000
vt 0.375000 0.750000
vt 0.375000 0.750000
vt 0.375000 0.750000
vt 0.375000 0.750000
vt 0.375000 0.750000
vt 0.375000 0.750000
vt 0.375000 0.750000
vt 0.625000 0.250000
vt 0.000000 0.576840
vt 0.850845 0.197709
vt 0.625000 1.000000
vt 0.439414 0.497776
vt 0.625000 1.000000
vt 0.421391 0.497776
vt 0.625000 1.000000
vt 0.488407 0.532235
vt 0.625000 1.000000
vt 0.403435 0.496310
vt 0.625000 0.500000
vt 0.470110 0.564724
vt 0.625000 0.500000
vt 0.522570 0.485207
vt 0.625000 0.500000
vt 0.409464 0.543470
vt 0.625000 0.500000
vt 0.402887 0.550002
vt 0.625000 0.500000
vt 0.385138 0.550002
vt 0.625000 0.500000
vt 0.421117 0.591837
vt 1.000000 1.000000
vt 0.819453 0.000000
vt 0.910475 0.894385
vt 0.309862 0.933567
vt 0.624288 0.275371
vt 0.849066 0.551422
vt 0.761161 0.771155
vt 0.000317 0.893725
vt 0.868662 0.100149
vt 0.629617 0.000000
vt 0.692363 0.000000
vt 0.767666 0.545928
vt 0.085480 0.668459
vt 0.884715 0.209406
vt 0.227871 0.924532
vt 0.557703 0.379024
vt 0.456940 0.497776
vt 0.541789 0.494564
vt 0.529317 0.292249
vt 0.467643 0.399177
vt 0.565967 0.604334
vt 0.517639 0.346796
vt 0.471234 0.656428
vt 0.335977 0.295796
vt 0.624288 0.656427
vt 0.512700 0.608489
vt 0.421558 0.447280
vt 0.558240 0.484709
vt 0.340602 0.522009
vt 0.511294 0.592298
vt 0.485335 0.429293
vt 0.518180 0.426729
vt 0.549140 0.421040
vt 0.435076 0.588158
vt 0.518453 0.594527
vt 0.419804 0.588158
vt 0.532790 0.426729
vt 0.496500 0.527657
vt 0.481501 0.527657
vt 0.496500 0.590477
vt 0.465394 0.525866
vt 0.363129 0.516831
vt 0.503196 0.364425
vt 0.499461 0.551089
vt 0.454478 0.497776
vt 0.547090 0.516831
vt 0.484604 0.497776
vt 0.458023 0.388099
vt 0.469541 0.497776
vt 0.033035 0.950995
vt 0.481487 0.499705
vt 0.534798 0.522108
vt 0.436298 0.499705
vt 0.548242 0.586275
vt 0.413194 0.513198
vt 0.456079 0.493460
vt 0.418222 0.369994
vt 0.487352 0.522009
vt 0.435336 0.372130
vt 0.563226 0.586275
vt 0.403159 0.369994
vt 0.533259 0.522108
vt 0.517528 0.501082
vt 0.991904 0.551422
vt 0.519884 0.421040
vt 0.562073 0.516831
vt 0.502465 0.501082
vt 0.385552 0.522009
vt 0.451361 0.499705
vt 0.480801 0.396243
vt 0.547654 0.501082
vt 0.503196 0.492759
vt 0.466424 0.499705
vt 0.458023 0.323932
vt 0.401393 0.498602
vt 0.473287 0.513198
vt 0.499667 0.497776
vt 0.484477 0.551089
vt 0.362885 0.498602
vt 0.503470 0.596402
vt 0.386330 0.498602
vt 0.456079 0.429293
vt 0.488546 0.427112
vt 0.503196 0.428592
vt 0.347822 0.498602
vt 0.534867 0.421040
vt 0.566807 0.498661
vt 0.538142 0.320891
vt 0.503470 0.532235
vt 0.499461 0.422756
vt 0.566807 0.562827
vt 0.458304 0.513198
vt 0.478477 0.435044
vt 0.508175 0.385057
vt 0.532591 0.501082
vt 0.988229 0.460742
vt 0.428966 0.456566
vt 0.419804 0.525866
vt 0.428257 0.513198
vt 0.370569 0.522009
vt 0.503196 0.428592
vt 0.608176 0.522108
vt 0.443320 0.513198
vt 0.578209 0.993977
vt 0.588197 0.462766
vt 0.565342 0.000000
vt 0.456874 0.466550
vt 0.426856 0.380735
vt 0.452361 0.564724
vt 0.621960 0.354917
vt 0.371267 0.498602
vt 0.470384 0.364425
vt 0.469048 0.521189
vt 0.529317 0.376154
vt 0.425291 0.323932
vt 0.443040 0.323932
vt 0.480801 0.332076
vt 0.441096 0.429293
vt 0.484477 0.422756
vt 0.445303 0.332076
vt 0.504821 0.421040
vt 0.466728 0.590566
vt 0.541138 0.469456
vt 0.490426 0.404795
vt 0.470384 0.532235
vt 0.460551 0.288225
vt 0.463052 0.332076
vt 0.488133 0.364425
vt 0.490426 0.320891
vt 0.409464 0.459565
vt 0.466728 0.422756
vt 0.518276 0.460294
vt 0.704921 0.802759
vt 0.055318 0.847215
vt 0.771087 0.801990
vt 0.466454 0.901509
vt 0.402323 0.496310
vt 0.766437 0.524505
vt 0.514829 0.532062
vt 0.767666 0.276013
vt 0.402011 0.706034
vt 0.566480 0.867996
vt 0.106545 0.266391
vt 0.087882 0.273171
vt 0.000000 0.000000
vt 0.279274 0.328563
vt 0.274604 0.217618
vt 0.228842 0.158368
vt 0.073341 0.339899
vt 0.297367 0.170349
vt 0.055318 0.209682
vt 0.187955 0.304388
vt 0.215858 0.306002
vt 0.207190 0.170119
vt 0.032762 0.071779
vt 0.073067 0.226734
vt 0.259036 0.204685
vn -0.2283 -0.9448 0.2348
vn -0.2442 -0.9444 0.2203
vn -0.0035 -0.9074 0.4204
vn 1.0000 -0.0014 0.0017
vn 1.0000 -0.0028 0.0009
vn 1.0000 0.0000 0.0025
vn -0.1825 -0.1426 0.9728
vn -0.0657 -0.4864 0.8713
vn -0.2199 -0.0074 0.9755
vn 0.0044 1.0000 0.0000
vn -0.0012 0.0000 -1.0000
vn -0.9541 -0.1791 0.2402
vn -0.7963 -0.5985 0.0874
vn -0.6441 -0.7649 -0.0000
vn -0.0000 1.0000 0.0000
vn 0.0000 0.0000 -1.0000
vn 0.0000 -1.0000 -0.0000
vn 0.0000 -0.0000 1.0000
vn 1.0000 0.0000 0.0000
vn 0.0034 0.0149 -0.9999
vn 0.0077 0.0065 -0.9999
vn 0.0111 0.0000 -0.9999
vn -0.0474 -0.0908 0.9947
vn -0.1052 -0.2016 0.9738
vn -0.1490 -0.2855 0.9467
vn -1.0000 -0.0000 -0.0000
vn -0.0041 -1.0000 -0.0000
vn 0.0169 -0.9999 -0.0000
vn -0.1156 0.1371 -0.9838
vn -0.0938 0.1112 -0.9894
vn -0.1130 -0.0000 0.9936
vn 0.2444 0.1250 -0.9616
vn 0.2347 0.1156 -0.9652
vn 0.1130 0.0000 -0.9936
vn -0.0000 0.9971 -0.0759
vn 0.0039 -0.9997 0.0251
vn 0.0016 -0.9997 0.0233
vn 0.0000 -0.9998 0.0222
vn -0.2764 0.2122 -0.9373
vn -0.3361 0.2616 -0.9048
vn -0.0190 0.0000 -0.9998
vn -0.9999 0.0083 -0.0078
vn -0.9999 0.0080 -0.0082
vn -0.9999 0.0143 0.0000
vn -0.0023 1.0000 -0.0023
vn -0.0028 1.0000 -0.0018
vn -0.0001 1.0000 -0.0047
vn -0.0342 -0.9994 -0.0000
vn -0.0100 1.0000 0.0000
vn -0.9999 -0.0167 -0.0000
vn 0.0000 0.0037 -1.0000
vn 0.0000 0.0012 -1.0000
vn 1.0000 -0.0088 -0.0000
vn -0.0000 -0.0221 -0.9998
vn -1.0000 0.0034 0.0000
vn -1.0000 0.0038 -0.0010
vn 0.0190 -0.0000 0.9998
vn -1.0000 -0.0002 -0.0000
vn 0.0000 0.0018 -1.0000
vn -1.0000 0.0033 0.0000
vn 0.0155 -0.0023 0.9999
vn 0.0253 -0.0049 0.9997
vn 0.0276 -0.0055 0.9996
vn -0.0149 0.0048 -0.9999
vn -0.0029 0.0016 -1.0000
vn -0.0177 0.0055 -0.9998
vn -1.0000 0.0019 -0.0006
vn -0.0166 0.9999 0.0000
vn -0.4562 -0.8899 0.0033
vn 1.0000 -0.0043 -0.0000
vn -0.0050 -0.6300 0.7765
vn -0.9581 -0.0000 0.2865
vn -0.0000 0.0214 -0.9998
vn -0.2035 0.2412 -0.9489
vn 0.3523 0.2306 -0.9070
vn 0.0057 -0.9996 0.0264
vn -0.5180 0.4133 -0.7489
vn -0.9998 -0.0000 -0.0185
vn -0.0045 1.0000 0.0000
vn 0.0131 -0.0017 0.9999
vn -0.0000 0.0009 -1.0000
s 1
f 1/1/1 2/2/2 3/3/3
f 4/4/4 5/5/5 1/1/6
f 6/6/7 2/7/8 5/8/9
f 7/9/10 4/4/10 8/10/10
f 4/4/11 3/3/11 8/10/11
f 8/10/12 2/7/13 7/11/14
f 9/12/15 10/13/15 11/14/15
f 12/15/16 13/16/16 14/17/16
f 15/18/17 14/19/17 13/20/17
f 11/14/18 16/21/18 15/18/18
f 9/22/19 15/18/19 13/16/19
f 17/23/17 18/24/17 19/25/17
f 20/26/19 17/27/19 19/28/19
f 21/29/18 22/30/18 17/31/18
f 23/32/20 24/33/21 25/34/22
f 26/35/23 27/36/24 28/37/25
f 28/38/26 29/39/26 23/40/26
f 25/41/27 28/42/27 23/43/27
f 30/44/17 31/45/17 32/46/17
f 33/47/18 34/48/18 35/49/18
f 36/50/28 34/51/28 37/52/28
f 38/53/18 39/54/18 40/55/18
f 40/56/17 41/57/17 42/58/17
f 43/59/16 44/60/16 45/61/16
f 46/62/19 47/63/19 44/64/19
f 48/65/18 49/66/18 47/63/18
f 50/67/26 45/68/26 49/66/26
f 47/63/17 45/69/17 44/70/17
f 46/71/15 50/72/15 48/73/15
f 51/74/19 52/75/19 53/76/19
f 52/77/17 54/78/17 53/79/17
f 51/80/15 55/81/15 56/82/15
f 57/83/17 58/84/17 59/85/17
f 60/86/26 58/87/26 61/88/26
f 62/89/16 59/90/16 58/91/16
f 63/92/19 57/93/19 59/94/19
f 63/95/15 60/96/15 64/97/15
f 65/98/29 66/99/30 67/100/16
f 67/101/31 68/102/31 69/103/31
f 68/104/18 70/105/18 69/106/18
f 71/107/32 65/108/33 70/109/34
f 69/110/35 65/111/35 67/112/35
f 68/113/36 72/114/37 71/107/38
f 73/115/39 74/116/40 75/117/41
f 76/118/42 77/119/43 73/120/44
f 78/121/17 73/122/17 75/123/17
f 79/124/45 77/125/46 80/126/47
f 81/127/17 82/128/17 83/129/17
f 84/130/15 85/131/15 86/132/15
f 87/133/17 88/134/17 89/135/17
f 90/136/15 91/137/15 92/138/15
f 93/139/17 94/140/17 95/141/17
f 96/142/15 97/143/15 98/144/15
f 99/145/17 100/146/17 101/147/17
f 102/148/15 103/149/15 104/150/15
f 105/151/17 106/152/17 107/153/17
f 108/154/16 109/155/16 110/156/16
f 111/157/17 110/158/17 109/159/17
f 112/160/15 113/161/15 114/162/15
f 115/163/17 116/164/17 117/165/17
f 118/166/15 119/167/15 120/168/15
f 121/169/17 122/170/17 123/171/17
f 124/172/15 125/173/15 126/174/15
f 127/175/17 128/176/17 129/177/17
f 130/178/15 131/179/15 132/180/15
f 133/181/17 134/182/17 135/183/17
f 136/184/17 137/185/17 138/186/17
f 139/187/17 140/188/17 141/189/17
f 142/190/17 143/191/17 144/192/17
f 145/193/17 146/194/17 147/195/17
f 148/196/17 149/197/17 150/198/17
f 151/199/17 152/200/17 153/201/17
f 154/202/17 155/203/17 156/204/17
f 157/205/17 158/206/17 159/207/17
f 160/208/17 161/209/17 162/210/17
f 163/211/48 164/212/48 165/213/48
f 166/214/19 163/215/19 165/216/19
f 167/217/49 168/218/49 169/219/49
f 170/220/26 171/221/26 172/222/26
f 173/223/17 171/224/17 174/225/17
f 175/226/26 176/227/26 177/228/26
f 178/229/17 176/230/17 179/231/17
f 180/232/26 181/233/26 182/234/26
f 183/235/17 181/236/17 184/237/17
f 185/238/26 186/239/26 187/240/26
f 188/241/17 186/242/17 189/243/17
f 190/244/19 191/245/19 192/246/19
f 191/247/17 193/248/17 192/249/17
f 194/250/19 195/251/19 196/252/19
f 195/253/17 197/254/17 196/255/17
f 198/256/19 199/257/19 200/258/19
f 199/259/17 201/260/17 200/261/17
f 202/262/19 203/263/19 204/264/19
f 203/265/17 205/266/17 204/267/17
f 206/268/19 207/269/19 208/270/19
f 207/271/17 209/272/17 208/273/17
f 210/274/19 211/275/19 212/276/19
f 211/277/17 213/278/17 212/279/17
f 214/280/15 215/281/15 216/282/15
f 217/283/16 42/284/16 41/285/16
f 36/286/50 33/287/50 218/288/50
f 219/289/19 40/290/19 42/291/19
f 220/292/51 221/293/51 222/294/51
f 223/295/52 224/296/52 225/297/52
f 226/298/52 227/299/52 228/300/52
f 34/301/53 229/302/53 35/303/53
f 230/304/54 231/305/54 232/306/54
f 233/307/16 53/308/16 54/309/16
f 56/310/18 234/311/18 52/312/18
f 55/313/26 54/314/26 234/315/26
f 235/316/55 236/317/55 237/318/55
f 238/319/56 239/320/56 240/321/56
f 241/322/26 41/323/26 39/324/26
f 242/325/19 178/326/19 179/327/19
f 243/328/19 183/329/19 184/330/19
f 244/331/19 188/332/19 189/333/19
f 245/334/26 193/335/26 246/336/26
f 247/337/26 209/338/26 248/339/26
f 249/340/26 18/341/26 22/342/26
f 24/343/19 26/344/19 25/345/19
f 250/346/16 32/347/16 31/348/16
f 251/349/19 30/350/19 32/351/19
f 252/352/18 253/353/18 30/354/18
f 254/355/26 31/356/26 253/357/26
f 255/358/16 218/359/16 229/360/16
f 74/361/19 78/362/19 75/363/19
f 79/364/57 76/365/57 78/366/57
f 256/367/16 83/368/16 82/369/16
f 84/370/19 81/371/19 83/372/19
f 86/373/18 257/374/18 81/375/18
f 85/376/26 82/377/26 257/378/26
f 258/379/16 89/380/16 88/381/16
f 90/382/19 87/383/19 89/384/19
f 92/385/18 259/386/18 87/387/18
f 91/388/26 88/389/26 259/390/26
f 260/391/16 95/392/16 94/393/16
f 96/394/19 93/395/19 95/396/19
f 98/397/18 261/398/18 93/399/18
f 97/400/26 94/401/26 261/402/26
f 262/403/16 101/404/16 100/405/16
f 102/406/19 99/407/19 101/408/19
f 104/409/18 263/410/18 99/411/18
f 103/412/26 100/413/26 263/414/26
f 264/415/16 107/416/16 106/417/16
f 265/418/19 105/419/19 107/420/19
f 266/421/18 267/422/18 105/423/18
f 268/424/26 106/425/26 267/426/26
f 265/427/15 268/428/15 266/429/15
f 112/430/19 111/431/19 109/432/19
f 114/433/18 269/434/18 111/435/18
f 113/436/26 110/437/26 269/438/26
f 270/439/16 117/440/16 116/441/16
f 118/442/19 115/443/19 117/444/19
f 120/445/18 271/446/18 115/447/18
f 119/448/26 116/449/26 271/450/26
f 272/451/16 123/452/16 122/453/16
f 124/454/19 121/455/19 123/456/19
f 126/457/18 273/458/18 121/459/18
f 125/460/26 122/461/26 273/462/26
f 274/463/16 129/464/16 128/465/16
f 130/466/19 127/467/19 129/468/19
f 132/469/18 275/470/18 127/471/18
f 131/472/26 128/473/26 275/474/26
f 276/475/16 135/476/16 134/477/16
f 277/478/19 133/479/19 135/480/19
f 278/481/18 279/482/18 133/483/18
f 280/484/26 134/485/26 279/486/26
f 281/487/16 138/488/16 137/489/16
f 282/490/19 136/491/19 138/492/19
f 283/493/18 284/494/18 136/495/18
f 285/496/26 137/497/26 284/498/26
f 286/499/16 141/500/16 140/501/16
f 287/502/19 139/503/19 141/504/19
f 288/505/18 289/506/18 139/507/18
f 290/508/26 140/509/26 289/510/26
f 291/511/16 144/512/16 143/513/16
f 292/514/19 142/515/19 144/516/19
f 293/517/18 294/518/18 142/519/18
f 295/520/26 143/521/26 294/522/26
f 296/523/16 147/524/16 146/525/16
f 297/526/19 145/527/19 147/528/19
f 298/529/18 299/530/18 145/531/18
f 300/532/26 146/533/26 299/534/26
f 301/535/16 150/536/16 149/537/16
f 302/538/19 148/539/19 150/540/19
f 303/541/18 304/542/18 148/543/18
f 305/544/26 149/545/26 304/546/26
f 306/547/16 153/548/16 152/549/16
f 307/550/19 151/551/19 153/552/19
f 308/553/18 309/554/18 151/555/18
f 310/556/26 152/557/26 309/558/26
f 311/559/16 156/560/16 155/561/16
f 312/562/19 154/563/19 156/564/19
f 313/565/18 314/566/18 154/567/18
f 315/568/26 155/569/26 314/570/26
f 316/571/16 159/572/16 158/573/16
f 317/574/19 157/575/19 159/576/19
f 318/577/18 319/578/18 157/579/18
f 320/580/26 158/581/26 319/582/26
f 321/583/16 162/584/16 161/585/16
f 322/586/19 160/587/19 162/588/19
f 323/589/18 324/590/18 160/591/18
f 325/592/26 161/593/26 324/594/26
f 326/595/26 168/596/26 164/597/26
f 327/598/16 174/599/16 171/600/16
f 328/601/19 173/602/19 174/603/19
f 329/604/18 172/605/18 173/606/18
f 330/607/16 179/608/16 176/609/16
f 331/610/18 177/611/18 178/612/18
f 332/613/16 184/614/16 181/615/16
f 333/616/18 182/617/18 183/618/18
f 334/619/16 189/620/16 186/621/16
f 335/622/18 187/623/18 188/624/18
f 336/625/16 192/626/16 193/627/16
f 337/628/18 246/629/18 191/630/18
f 338/631/16 196/632/16 197/633/16
f 339/634/18 340/635/18 195/636/18
f 341/637/26 197/638/26 340/639/26
f 342/640/16 200/641/16 201/642/16
f 343/643/18 344/644/18 199/645/18
f 345/646/26 201/647/26 344/648/26
f 346/649/16 204/650/16 205/651/16
f 347/652/18 348/653/18 203/654/18
f 349/655/26 205/656/26 348/657/26
f 350/658/16 208/659/16 209/660/16
f 351/661/18 248/662/18 207/663/18
f 352/664/16 212/665/16 213/666/16
f 353/667/18 354/668/18 211/669/18
f 355/670/26 213/671/26 354/672/26
f 356/673/58 357/674/58 358/675/58
f 359/676/59 360/677/59 361/678/59
f 362/679/59 363/680/59 364/681/59
f 365/682/59 366/683/59 367/684/59
f 368/685/60 369/686/60 370/687/60
f 371/688/16 19/689/16 18/690/16
f 64/691/18 61/692/18 57/693/18
f 167/694/61 326/695/62 163/696/63
f 164/697/64 166/698/65 165/699/66
f 372/700/67 373/701/67 374/702/67
f 375/703/58 376/704/58 377/705/58
f 20/706/15 249/707/15 21/708/15
f 24/709/15 27/710/15 378/711/15
f 251/712/15 254/713/15 252/714/15
f 33/715/68 229/716/68 218/717/68
f 219/718/15 241/719/15 38/720/15
f 328/721/15 170/722/15 329/723/15
f 242/724/15 175/725/15 331/726/15
f 243/727/15 180/728/15 333/729/15
f 244/730/15 185/731/15 335/732/15
f 190/733/15 245/734/15 337/735/15
f 194/736/15 341/737/15 339/738/15
f 198/739/15 345/740/15 343/741/15
f 202/742/15 349/743/15 347/744/15
f 206/745/15 247/746/15 351/747/15
f 210/748/15 355/749/15 353/750/15
f 1/1/1 5/751/69 2/2/2
f 4/4/4 6/752/70 5/5/5
f 6/6/7 7/11/71 2/7/8
f 7/9/10 6/753/10 4/4/10
f 4/4/11 1/1/11 3/3/11
f 8/10/12 3/3/72 2/7/13
f 9/12/15 12/754/15 10/13/15
f 12/15/16 9/22/16 13/16/16
f 15/18/17 16/21/17 14/19/17
f 11/14/18 10/13/18 16/21/18
f 9/22/19 11/14/19 15/18/19
f 17/23/17 22/755/17 18/24/17
f 20/26/19 21/756/19 17/27/19
f 21/29/18 249/757/18 22/30/18
f 23/32/20 29/758/73 24/33/21
f 26/35/23 378/759/18 27/36/24
f 28/38/26 27/760/26 29/39/26
f 25/41/27 26/761/27 28/42/27
f 30/44/17 253/762/17 31/45/17
f 33/47/18 37/763/18 34/48/18
f 36/50/28 255/764/28 34/51/28
f 38/53/18 241/765/18 39/54/18
f 40/56/17 39/766/17 41/57/17
f 43/59/16 46/767/16 44/60/16
f 46/62/19 48/65/19 47/63/19
f 48/65/18 50/67/18 49/66/18
f 50/67/26 43/768/26 45/68/26
f 47/63/17 49/66/17 45/69/17
f 46/71/15 43/769/15 50/72/15
f 51/74/19 56/770/19 52/75/19
f 52/77/17 234/771/17 54/78/17
f 51/80/15 233/772/15 55/81/15
f 57/83/17 61/773/17 58/84/17
f 60/86/26 62/774/26 58/87/26
f 62/89/16 63/775/16 59/90/16
f 63/92/19 64/776/19 57/93/19
f 63/95/15 62/777/15 60/96/15
f 65/98/29 72/778/74 66/99/30
f 67/101/31 66/779/31 68/102/31
f 68/104/18 71/780/18 70/105/18
f 71/107/32 72/781/75 65/108/33
f 69/110/35 70/109/35 65/111/35
f 68/113/36 66/782/76 72/114/37
f 73/115/39 77/783/77 74/116/40
f 76/118/42 80/126/78 77/119/43
f 78/121/17 76/118/17 73/122/17
f 79/124/45 74/784/79 77/125/46
f 81/127/17 257/785/17 82/128/17
f 84/130/15 256/786/15 85/131/15
f 87/133/17 259/787/17 88/134/17
f 90/136/15 258/788/15 91/137/15
f 93/139/17 261/789/17 94/140/17
f 96/142/15 260/790/15 97/143/15
f 99/145/17 263/791/17 100/146/17
f 102/148/15 262/792/15 103/149/15
f 105/151/17 267/793/17 106/152/17
f 108/154/16 112/794/16 109/155/16
f 111/157/17 269/795/17 110/158/17
f 112/160/15 108/796/15 113/161/15
f 115/163/17 271/797/17 116/164/17
f 118/166/15 270/798/15 119/167/15
f 121/169/17 273/799/17 122/170/17
f 124/172/15 272/800/15 125/173/15
f 127/175/17 275/801/17 128/176/17
f 130/178/15 274/802/15 131/179/15
f 133/181/17 279/803/17 134/182/17
f 136/184/17 284/804/17 137/185/17
f 139/187/17 289/805/17 140/188/17
f 142/190/17 294/806/17 143/191/17
f 145/193/17 299/807/17 146/194/17
f 148/196/17 304/808/17 149/197/17
f 151/199/17 309/809/17 152/200/17
f 154/202/17 314/810/17 155/203/17
f 157/205/17 319/811/17 158/206/17
f 160/208/17 324/812/17 161/209/17
f 163/211/48 326/813/48 164/212/48
f 166/214/19 167/814/19 163/215/19
f 167/217/49 166/815/49 168/218/49
f 170/220/26 327/816/26 171/221/26
f 173/223/17 172/817/17 171/224/17
f 175/226/26 330/818/26 176/227/26
f 178/229/17 177/819/17 176/230/17
f 180/232/26 332/820/26 181/233/26
f 183/235/17 182/821/17 181/236/17
f 185/238/26 334/822/26 186/239/26
f 188/241/17 187/823/17 186/242/17
f 190/244/19 337/824/19 191/245/19
f 191/247/17 246/825/17 193/248/17
f 194/250/19 339/826/19 195/251/19
f 195/253/17 340/827/17 197/254/17
f 198/256/19 343/828/19 199/257/19
f 199/259/17 344/829/17 201/260/17
f 202/262/19 347/830/19 203/263/19
f 203/265/17 348/831/17 205/266/17
f 206/268/19 351/832/19 207/269/19
f 207/271/17 248/833/17 209/272/17
f 210/274/19 353/834/19 211/275/19
f 211/277/17 354/835/17 213/278/17
f 214/280/15 379/836/15 215/281/15
f 217/283/16 219/837/16 42/284/16
f 36/286/50 37/838/50 33/287/50
f 219/289/19 38/839/19 40/290/19
f 220/292/51 380/840/51 221/293/51
f 223/295/52 381/841/52 224/296/52
f 226/298/52 382/842/52 227/299/52
f 34/301/53 255/843/53 229/302/53
f 230/304/54 383/844/54 231/305/54
f 233/307/16 51/845/16 53/308/16
f 56/310/18 55/846/18 234/311/18
f 55/313/26 233/847/26 54/314/26
f 235/316/55 384/848/55 236/317/55
f 238/319/56 385/849/56 239/320/56
f 241/322/26 217/850/26 41/323/26
f 242/325/19 331/851/19 178/326/19
f 243/328/19 333/852/19 183/329/19
f 244/331/19 335/853/19 188/332/19
f 245/334/26 336/854/26 193/335/26
f 247/337/26 350/855/26 209/338/26
f 249/340/26 371/856/26 18/341/26
f 24/343/19 378/857/19 26/344/19
f 250/346/16 251/858/16 32/347/16
f 251/349/19 252/859/19 30/350/19
f 252/352/18 254/860/18 253/353/18
f 254/355/26 250/861/26 31/356/26
f 255/358/16 36/862/16 218/359/16
f 74/361/19 79/863/19 78/362/19
f 79/364/57 80/864/57 76/365/57
f 256/367/16 84/865/16 83/368/16
f 84/370/19 86/866/19 81/371/19
f 86/373/18 85/867/18 257/374/18
f 85/376/26 256/868/26 82/377/26
f 258/379/16 90/869/16 89/380/16
f 90/382/19 92/870/19 87/383/19
f 92/385/18 91/871/18 259/386/18
f 91/388/26 258/872/26 88/389/26
f 260/391/16 96/873/16 95/392/16
f 96/394/19 98/874/19 93/395/19
f 98/397/18 97/875/18 261/398/18
f 97/400/26 260/876/26 94/401/26
f 262/403/16 102/877/16 101/404/16
f 102/406/19 104/878/19 99/407/19
f 104/409/18 103/879/18 263/410/18
f 103/412/26 262/880/26 100/413/26
f 264/415/16 265/881/16 107/416/16
f 265/418/19 266/882/19 105/419/19
f 266/421/18 268/883/18 267/422/18
f 268/424/26 264/884/26 106/425/26
f 265/427/15 264/885/15 268/428/15
f 112/430/19 114/886/19 111/431/19
f 114/433/18 113/887/18 269/434/18
f 113/436/26 108/888/26 110/437/26
f 270/439/16 118/889/16 117/440/16
f 118/442/19 120/890/19 115/443/19
f 120/445/18 119/891/18 271/446/18
f 119/448/26 270/892/26 116/449/26
f 272/451/16 124/893/16 123/452/16
f 124/454/19 126/894/19 121/455/19
f 126/457/18 125/895/18 273/458/18
f 125/460/26 272/896/26 122/461/26
f 274/463/16 130/897/16 129/464/16
f 130/466/19 132/898/19 127/467/19
f 132/469/18 131/899/18 275/470/18
f 131/472/26 274/900/26 128/473/26
f 276/475/16 277/901/16 135/476/16
f 277/478/19 278/902/19 133/479/19
f 278/481/18 280/903/18 279/482/18
f 280/484/26 276/904/26 134/485/26
f 281/487/16 282/905/16 138/488/16
f 282/490/19 283/906/19 136/491/19
f 283/493/18 285/907/18 284/494/18
f 285/496/26 281/908/26 137/497/26
f 286/499/16 287/909/16 141/500/16
f 287/502/19 288/910/19 139/503/19
f 288/505/18 290/911/18 289/506/18
f 290/508/26 286/912/26 140/509/26
f 291/511/16 292/913/16 144/512/16
f 292/514/19 293/914/19 142/515/19
f 293/517/18 295/915/18 294/518/18
f 295/520/26 291/916/26 143/521/26
f 296/523/16 297/917/16 147/524/16
f 297/526/19 298/918/19 145/527/19
f 298/529/18 300/919/18 299/530/18
f 300/532/26 296/920/26 146/533/26
f 301/535/16 302/921/16 150/536/16
f 302/538/19 303/922/19 148/539/19
f 303/541/18 305/923/18 304/542/18
f 305/544/26 301/924/26 149/545/26
f 306/547/16 307/925/16 153/548/16
f 307/550/19 308/926/19 151/551/19
f 308/553/18 310/927/18 309/554/18
f 310/556/26 306/928/26 152/557/26
f 311/559/16 312/929/16 156/560/16
f 312/562/19 313/930/19 154/563/19
f 313/565/18 315/931/18 314/566/18
f 315/568/26 311/932/26 155/569/26
f 316/571/16 317/933/16 159/572/16
f 317/574/19 318/934/19 157/575/19
f 318/577/18 320/935/18 319/578/18
f 320/580/26 316/936/26 158/581/26
f 321/583/16 322/937/16 162/584/16
f 322/586/19 323/938/19 160/587/19
f 323/589/18 325/939/18 324/590/18
f 325/592/26 321/940/26 161/593/26
f 326/595/26 169/941/26 168/596/26
f 327/598/16 328/942/16 174/599/16
f 328/601/19 329/943/19 173/602/19
f 329/604/18 170/944/18 172/605/18
f 330/607/16 242/945/16 179/608/16
f 331/610/18 175/946/18 177/611/18
f 332/613/16 243/947/16 184/614/16
f 333/616/18 180/948/18 182/617/18
f 334/619/16 244/949/16 189/620/16
f 335/622/18 185/950/18 187/623/18
f 336/625/16 190/951/16 192/626/16
f 337/628/18 245/952/18 246/629/18
f 338/631/16 194/953/16 196/632/16
f 339/634/18 341/954/18 340/635/18
f 341/637/26 338/955/26 197/638/26
f 342/640/16 198/956/16 200/641/16
f 343/643/18 345/957/18 344/644/18
f 345/646/26 342/958/26 201/647/26
f 346/649/16 202/959/16 204/650/16
f 347/652/18 349/960/18 348/653/18
f 349/655/26 346/961/26 205/656/26
f 350/658/16 206/962/16 208/659/16
f 351/661/18 247/963/18 248/662/18
f 352/664/16 210/964/16 212/665/16
f 353/667/18 355/965/18 354/668/18
f 355/670/26 352/966/26 213/671/26
f 356/673/58 386/967/58 357/674/58
f 359/676/59 387/968/59 360/677/59
f 362/679/59 388/969/59 363/680/59
f 365/682/59 389/970/59 366/683/59
f 368/685/60 390/971/60 369/686/60
f 371/688/16 20/972/16 19/689/16
f 64/691/18 60/973/18 61/692/18
f 167/694/61 169/974/80 326/695/62
f 164/697/64 168/975/81 166/698/65
f 372/700/67 391/976/67 373/701/67
f 375/703/58 392/977/58 376/704/58
f 20/706/15 371/978/15 249/707/15
f 24/709/15 29/979/15 27/710/15
f 251/712/15 250/980/15 254/713/15
f 33/715/68 35/981/68 229/716/68
f 219/718/15 217/982/15 241/719/15
f 328/721/15 327/983/15 170/722/15
f 242/724/15 330/984/15 175/725/15
f 243/727/15 332/985/15 180/728/15
f 244/730/15 334/986/15 185/731/15
f 190/733/15 336/987/15 245/734/15
f 194/736/15 338/988/15 341/737/15
f 198/739/15 342/989/15 345/740/15
f 202/742/15 346/990/15 349/743/15
f 206/745/15 350/991/15 247/746/15
f 210/748/15 352/992/15 355/749/15
l 2 399
l 399 400
l 396 393
l 393 398
l 397 396
l 395 396
l 393 394
