# Blender v2.81 (sub 16) OBJ File: 'Observatory.blend'
# www.blender.org
o Cube.001
v -3.954551 3.421992 -0.296993
v -3.954551 3.335363 -0.582572
v -3.954551 3.194684 -0.845763
v -3.954551 3.005363 -1.076452
v -3.954551 2.774673 -1.265774
v -3.954551 2.511482 -1.406452
v -3.954551 2.225903 -1.493082
v -3.954551 1.928911 -1.522333
v -3.896610 3.421992 -0.291286
v -3.840897 3.335363 -0.571378
v -3.789551 3.194684 -0.829512
v -3.744546 3.005363 -1.055768
v -3.707611 2.774673 -1.241452
v -3.680166 2.511482 -1.379428
v -3.663265 2.225903 -1.464392
v -3.657558 1.928911 -1.493082
v -3.840897 3.421992 -0.274385
v -3.731611 3.335363 -0.538226
v -3.630892 3.194684 -0.781383
v -3.542611 3.005363 -0.994512
v -3.470160 2.774673 -1.169422
v -3.416325 2.511482 -1.299392
v -3.383174 2.225903 -1.379428
v -3.371979 1.928911 -1.406452
v -3.789551 3.421992 -0.246940
v -3.630892 3.335363 -0.484391
v -3.484670 3.194684 -0.703226
v -3.356506 3.005363 -0.895037
v -3.251325 2.774673 -1.052452
v -3.173168 2.511482 -1.169422
v -3.125039 2.225903 -1.241452
v -3.108788 1.928911 -1.265773
v -3.744546 3.421992 -0.210005
v -3.542610 3.335363 -0.411940
v -3.356506 3.194684 -0.598045
v -3.193384 3.005363 -0.761166
v -3.059514 2.774673 -0.895037
v -2.960039 2.511482 -0.994512
v -2.898783 2.225903 -1.055768
v -2.878099 1.928911 -1.076452
v -3.707611 3.421992 -0.165000
v -3.470160 3.335363 -0.323659
v -3.251325 3.194684 -0.469880
v -3.059514 3.005363 -0.598044
v -2.902099 2.774673 -0.703226
v -2.785129 2.511482 -0.781383
v -2.713099 2.225903 -0.829511
v -2.688777 1.928911 -0.845763
v -3.680165 3.421992 -0.113654
v -3.416324 3.335363 -0.222940
v -3.173168 3.194684 -0.323659
v -2.960039 3.005363 -0.411940
v -2.785129 2.774673 -0.484390
v -2.655159 2.511482 -0.538226
v -2.575123 2.225903 -0.571377
v -2.548099 1.928911 -0.582571
v -3.663265 3.421992 -0.057940
v -3.383173 3.335363 -0.113654
v -3.125039 3.194684 -0.165000
v -2.898783 3.005363 -0.210005
v -2.713099 2.774673 -0.246940
v -2.575123 2.511482 -0.274385
v -2.490159 2.225903 -0.291285
v -2.461469 1.928911 -0.296992
v -3.657558 3.421992 0.000000
v -3.371979 3.335363 0.000000
v -3.108788 3.194684 0.000000
v -2.878099 3.005363 0.000000
v -2.688777 2.774673 0.000000
v -2.548099 2.511482 0.000000
v -2.461469 2.225903 0.000000
v -2.432218 1.928911 0.000000
v -3.663265 3.421992 0.057941
v -3.383173 3.335363 0.113655
v -3.125039 3.194684 0.165001
v -2.898783 3.005363 0.210006
v -2.713099 2.774673 0.246941
v -2.575123 2.511482 0.274385
v -2.490159 2.225903 0.291286
v -2.461469 1.928911 0.296993
v -3.680165 3.421992 0.113655
v -3.416324 3.335363 0.222941
v -3.173168 3.194684 0.323660
v -2.960039 3.005363 0.411941
v -2.785129 2.774673 0.484391
v -2.655159 2.511482 0.538226
v -2.575124 2.225903 0.571378
v -2.548099 1.928911 0.582572
v -3.707611 3.421992 0.165001
v -3.470160 3.335363 0.323660
v -3.251325 3.194684 0.469881
v -3.059514 3.005363 0.598045
v -2.902099 2.774673 0.703227
v -2.785129 2.511482 0.781383
v -2.713099 2.225903 0.829512
v -2.688777 1.928911 0.845763
v -3.744546 3.421992 0.210006
v -3.542611 3.335363 0.411941
v -3.356506 3.194684 0.598045
v -3.193384 3.005363 0.761167
v -3.059514 2.774673 0.895037
v -2.960039 2.511482 0.994512
v -2.898783 2.225903 1.055768
v -2.878100 1.928911 1.076452
v -3.789551 3.421992 0.246941
v -3.630892 3.335363 0.484391
v -3.484670 3.194684 0.703227
v -3.356507 3.005363 0.895037
v -3.251325 2.774673 1.052452
v -3.173168 2.511482 1.169423
v -3.125039 2.225903 1.241452
v -3.108788 1.928911 1.265774
v -3.840897 3.421992 0.274386
v -3.731611 3.335363 0.538226
v -3.630892 3.194684 0.781383
v -3.542611 3.005363 0.994512
v -3.470161 2.774673 1.169423
v -3.416325 2.511482 1.299393
v -3.383174 2.225903 1.379428
v -3.371979 1.928911 1.406453
v -3.896610 3.421992 0.291286
v -3.840897 3.335363 0.571378
v -3.789551 3.194684 0.829512
v -3.744546 3.005363 1.055768
v -3.707611 2.774673 1.241452
v -3.680166 2.511482 1.379428
v -3.663266 2.225903 1.464393
v -3.657558 1.928911 1.493082
v -3.954551 3.421992 0.296993
v -3.954551 3.335363 0.582572
v -3.954551 3.194684 0.845763
v -3.954551 3.005363 1.076452
v -3.954551 2.774673 1.265773
v -3.954551 2.511482 1.406453
v -3.954551 2.225903 1.493081
v -3.954551 1.928911 1.522333
v -4.012492 3.421992 0.291286
v -4.068205 3.335363 0.571378
v -4.119552 3.194684 0.829512
v -4.164557 3.005363 1.055768
v -4.201491 2.774673 1.241452
v -4.228936 2.511482 1.379428
v -4.245837 2.225903 1.464392
v -4.251544 1.928911 1.493082
v -4.068205 3.421992 0.274386
v -4.177492 3.335363 0.538226
v -4.278210 3.194684 0.781383
v -4.366491 3.005363 0.994512
v -4.438941 2.774673 1.169422
v -4.492777 2.511482 1.299393
v -4.525928 2.225903 1.379427
v -4.537123 1.928911 1.406452
v -4.119552 3.421992 0.246941
v -4.278210 3.335363 0.484391
v -4.424432 3.194684 0.703227
v -4.552595 3.005363 0.895037
v -4.657777 2.774673 1.052452
v -4.735934 2.511482 1.169423
v -4.784063 2.225903 1.241452
v -4.800314 1.928911 1.265774
v -4.215940 1.537594 -1.314089
v -4.467283 1.537594 -1.237845
v -4.698923 1.537594 -1.114031
v -4.901957 1.537594 -0.947406
v -5.068583 1.537594 -0.744372
v -5.192396 1.537594 -0.512732
v -5.268641 1.537594 -0.261389
v -3.954551 3.451244 0.000001
v -4.164557 3.421992 0.210006
v -4.366491 3.335363 0.411941
v -4.552595 3.194684 0.598045
v -4.715718 3.005363 0.761167
v -4.849588 2.774673 0.895037
v -4.949062 2.511482 0.994512
v -5.010319 2.225903 1.055768
v -5.031003 1.928911 1.076452
v -5.294385 1.537594 0.000000
v -5.268641 1.537594 0.261389
v -5.192397 1.537594 0.512733
v -5.068583 1.537594 0.744372
v -4.901958 1.537594 0.947406
v -4.698924 1.537594 1.114032
v -4.467283 1.537594 1.237846
v -4.201491 3.421992 0.165001
v -4.438941 3.335363 0.323660
v -4.657777 3.194684 0.469881
v -4.849588 3.005363 0.598045
v -5.007003 2.774673 0.703226
v -5.123973 2.511482 0.781383
v -5.196002 2.225903 0.829511
v -5.220325 1.928911 0.845763
v -4.215940 1.537594 1.314090
v -3.954551 1.537594 1.339835
v -3.693163 1.537594 1.314090
v -3.441819 1.537594 1.237846
v -3.210179 1.537594 1.114032
v -3.007145 1.537594 0.947406
v -2.840519 1.537594 0.744373
v -4.228937 3.421992 0.113655
v -4.492777 3.335363 0.222941
v -4.735934 3.194684 0.323660
v -4.949063 3.005363 0.411940
v -5.123972 2.774673 0.484390
v -5.253943 2.511482 0.538226
v -5.333979 2.225903 0.571377
v -5.361004 1.928911 0.582572
v -2.716705 1.537594 0.512733
v -2.640461 1.537594 0.261389
v -2.614717 1.537594 0.000000
v -2.640461 1.537594 -0.261388
v -2.716705 1.537594 -0.512732
v -2.840519 1.537594 -0.744372
v -3.007144 1.537594 -0.947406
v -4.245837 3.421992 0.057941
v -4.525928 3.335363 0.113654
v -4.784063 3.194684 0.165000
v -5.010319 3.005363 0.210005
v -5.196002 2.774673 0.246940
v -5.333979 2.511482 0.274386
v -5.418943 2.225903 0.291286
v -5.447633 1.928911 0.296992
v -3.210178 1.537594 -1.114032
v -3.441819 1.537594 -1.237846
v -3.693163 1.537594 -1.314090
v -3.954551 1.537594 -1.339835
v -3.954551 1.695786 -1.339835
v -3.693163 1.695786 -1.314090
v -3.441819 1.695786 -1.237846
v -4.251544 3.421992 0.000000
v -4.537123 3.335363 0.000000
v -4.800313 3.194684 0.000000
v -5.031003 3.005363 0.000000
v -5.220324 2.774673 0.000000
v -5.361003 2.511482 0.000000
v -5.447632 2.225903 0.000000
v -5.476883 1.928911 0.000000
v -3.210178 1.695786 -1.114032
v -3.007144 1.695786 -0.947406
v -2.840519 1.695786 -0.744372
v -2.716705 1.695786 -0.512732
v -2.640461 1.695786 -0.261388
v -2.614717 1.695786 0.000000
v -2.640461 1.695786 0.261389
v -4.245837 3.421992 -0.057940
v -4.525928 3.335363 -0.113654
v -4.784063 3.194684 -0.165000
v -5.010319 3.005363 -0.210005
v -5.196002 2.774673 -0.246940
v -5.333979 2.511482 -0.274385
v -5.418942 2.225903 -0.291286
v -5.447632 1.928911 -0.296992
v -2.716705 1.695786 0.512733
v -2.840519 1.695786 0.744373
v -3.007145 1.695786 0.947406
v -3.210179 1.695786 1.114032
v -3.441819 1.695786 1.237846
v -3.693163 1.695786 1.314090
v -3.954551 1.695786 1.339835
v -4.228937 3.421992 -0.113654
v -4.492777 3.335363 -0.222940
v -4.735934 3.194684 -0.323659
v -4.949062 3.005363 -0.411940
v -5.123972 2.774673 -0.484390
v -5.253943 2.511482 -0.538225
v -5.333978 2.225903 -0.571377
v -5.361002 1.928911 -0.582571
v -4.215940 1.695786 1.314090
v -4.467283 1.695786 1.237846
v -4.698924 1.695786 1.114032
v -4.901958 1.695786 0.947406
v -5.068583 1.695786 0.744372
v -5.192397 1.695786 0.512733
v -5.268641 1.695786 0.261389
v -4.201491 3.421992 -0.165000
v -4.438941 3.335363 -0.323659
v -4.657777 3.194684 -0.469880
v -4.849588 3.005363 -0.598044
v -5.007003 2.774673 -0.703226
v -5.123973 2.511482 -0.781383
v -5.196002 2.225903 -0.829511
v -5.220324 1.928911 -0.845762
v -5.294385 1.695786 0.000000
v -5.268641 1.695786 -0.261389
v -5.192396 1.695786 -0.512732
v -5.068583 1.695786 -0.744372
v -4.901957 1.695786 -0.947406
v -4.698923 1.695786 -1.114031
v -4.467283 1.695786 -1.237845
v -4.164557 3.421992 -0.210005
v -4.366491 3.335363 -0.411940
v -4.552595 3.194684 -0.598044
v -4.715717 3.005363 -0.761166
v -4.849587 2.774673 -0.895036
v -4.949062 2.511482 -0.994511
v -5.010318 2.225903 -1.055767
v -5.031002 1.928911 -1.076451
v -4.215940 1.695786 -1.314089
v -4.251544 1.695786 -1.493081
v -4.537122 1.695786 -1.406451
v -4.800313 1.695786 -1.265773
v -5.031002 1.695786 -1.076451
v -5.220324 1.695786 -0.845762
v -5.361002 1.695786 -0.582571
v -4.119552 3.421992 -0.246940
v -4.278210 3.335363 -0.484390
v -4.424432 3.194684 -0.703226
v -4.552595 3.005363 -0.895037
v -4.657777 2.774673 -1.052451
v -4.735934 2.511482 -1.169422
v -4.784062 2.225903 -1.241451
v -4.800313 1.928911 -1.265773
v -5.447632 1.695786 -0.296992
v -5.476883 1.695786 0.000000
v -5.447633 1.695786 0.296992
v -5.361004 1.695786 0.582572
v -5.220325 1.695786 0.845763
v -5.031003 1.695786 1.076452
v -4.800314 1.695786 1.265774
v -4.068205 3.421992 -0.274385
v -4.177492 3.335363 -0.538225
v -4.278210 3.194684 -0.781382
v -4.366491 3.005363 -0.994511
v -4.438941 2.774673 -1.169421
v -4.492777 2.511482 -1.299392
v -4.525928 2.225903 -1.379426
v -4.537122 1.928911 -1.406451
v -4.537123 1.695786 1.406452
v -4.251544 1.695786 1.493082
v -3.954551 1.695786 1.522333
v -3.657558 1.695786 1.493082
v -3.371979 1.695786 1.406453
v -3.108788 1.695786 1.265774
v -2.878100 1.695786 1.076452
v -4.012491 3.421992 -0.291286
v -4.068205 3.335363 -0.571377
v -4.119551 3.194684 -0.829511
v -4.164557 3.005363 -1.055768
v -4.201490 2.774673 -1.241451
v -4.228936 2.511482 -1.379427
v -4.245836 2.225903 -1.464391
v -4.251544 1.928911 -1.493081
v -2.688777 1.695786 0.845763
v -2.548099 1.695786 0.582572
v -2.461469 1.695786 0.296993
v -2.432218 1.695786 0.000000
v -2.461469 1.695786 -0.296992
v -2.548099 1.695786 -0.582571
v -2.688777 1.695786 -0.845763
v -2.878099 1.695786 -1.076452
v -3.108788 1.695786 -1.265773
v -3.371979 1.695786 -1.406452
v -3.657558 1.695786 -1.493082
v -3.954551 1.695786 -1.522333
vt 0.128270 0.394238
vt 0.132280 0.403096
vt 0.128115 0.403042
vt 0.156544 0.396452
vt 0.156544 0.389092
vt 0.157349 0.396311
vt 0.158124 0.403333
vt 0.156544 0.403609
vt 0.158838 0.409886
vt 0.156544 0.410287
vt 0.131690 0.363797
vt 0.133416 0.370110
vt 0.130471 0.370072
vt 0.132933 0.377476
vt 0.129471 0.377431
vt 0.132575 0.385641
vt 0.128728 0.385591
vt 0.132354 0.394291
vt 0.136560 0.385520
vt 0.136584 0.394163
vt 0.136593 0.402965
vt 0.158124 0.395895
vt 0.159644 0.402516
vt 0.161045 0.408700
vt 0.134004 0.363828
vt 0.136466 0.370018
vt 0.136520 0.377367
vt 0.163079 0.406773
vt 0.136400 0.363755
vt 0.139504 0.369798
vt 0.140092 0.377108
vt 0.140529 0.385233
vt 0.140798 0.393858
vt 0.140889 0.402654
vt 0.158838 0.395218
vt 0.161045 0.401189
vt 0.097736 0.366235
vt 0.089710 0.369006
vt 0.090196 0.364464
vt 0.081932 0.368508
vt 0.082428 0.363877
vt 0.159464 0.394308
vt 0.162273 0.399403
vt 0.164861 0.404181
vt 0.116195 0.377756
vt 0.110639 0.376286
vt 0.110990 0.373011
vt 0.104344 0.372971
vt 0.104757 0.369121
vt 0.097278 0.370513
vt 0.115919 0.380329
vt 0.110351 0.380287
vt 0.104006 0.377677
vt 0.096902 0.375741
vt 0.089311 0.374556
vt 0.081525 0.374166
vt 0.159978 0.393199
vt 0.163281 0.397227
vt 0.166324 0.401022
vt 0.081223 0.380635
vt 0.160360 0.391933
vt 0.164029 0.394744
vt 0.119827 0.387111
vt 0.115525 0.387067
vt 0.115693 0.383473
vt 0.110137 0.384861
vt 0.103754 0.383055
vt 0.096622 0.381718
vt 0.089014 0.380901
vt 0.110006 0.389833
vt 0.103600 0.388901
vt 0.096450 0.388214
vt 0.088831 0.387797
vt 0.081037 0.387666
vt 0.160595 0.390560
vt 0.164490 0.392051
vt 0.119711 0.389587
vt 0.115422 0.390973
vt 0.080974 0.394989
vt 0.160674 0.389132
vt 0.164646 0.389249
vt 0.119640 0.392277
vt 0.115387 0.395041
vt 0.109961 0.395011
vt 0.103547 0.394990
vt 0.096392 0.394979
vt 0.088770 0.394978
vt 0.110006 0.400196
vt 0.103600 0.401086
vt 0.096450 0.401753
vt 0.088831 0.402170
vt 0.081037 0.402321
vt 0.160595 0.387704
vt 0.164490 0.386448
vt 0.119640 0.397886
vt 0.115422 0.399115
vt 0.160360 0.386330
vt 0.164029 0.383754
vt 0.119711 0.400588
vt 0.115525 0.403038
vt 0.110137 0.405188
vt 0.103754 0.406957
vt 0.096622 0.408277
vt 0.089014 0.409095
vt 0.081223 0.409382
vt 0.110351 0.409797
vt 0.104006 0.412377
vt 0.096902 0.414298
vt 0.089311 0.415488
vt 0.081525 0.415900
vt 0.159978 0.385065
vt 0.163281 0.381272
vt 0.119827 0.403082
vt 0.115693 0.406659
vt 0.159464 0.383956
vt 0.162273 0.379096
vt 0.166324 0.377859
vt 0.164861 0.374700
vt 0.115919 0.409839
vt 0.110639 0.413845
vt 0.104344 0.417137
vt 0.097278 0.419587
vt 0.089710 0.421103
vt 0.081932 0.421625
vt 0.104757 0.421054
vt 0.097736 0.423940
vt 0.090196 0.425723
vt 0.082428 0.426336
vt 0.158838 0.383045
vt 0.161045 0.377310
vt 0.163079 0.372108
vt 0.116195 0.412457
vt 0.110990 0.417176
vt 0.159644 0.375983
vt 0.161045 0.370181
vt 0.164861 0.367637
vt 0.162273 0.365185
vt 0.111390 0.419663
vt 0.105227 0.423978
vt 0.098259 0.427189
vt 0.090752 0.429172
vt 0.082994 0.429852
vt 0.158124 0.382369
vt 0.054907 0.457144
vt 0.050897 0.465376
vt 0.051574 0.456742
vt 0.055201 0.448354
vt 0.051803 0.447943
vt 0.157349 0.381952
vt 0.158124 0.375166
vt 0.158838 0.368995
vt 0.159464 0.363675
vt 0.052623 0.473856
vt 0.048318 0.480843
vt 0.049798 0.473514
vt 0.054036 0.465755
vt 0.156544 0.374890
vt 0.156544 0.368594
vt 0.044373 0.486950
vt 0.045592 0.480676
vt 0.046593 0.473317
vt 0.047336 0.465157
vt 0.047794 0.456509
vt 0.047948 0.447706
vt 0.156544 0.381812
vt 0.043709 0.456456
vt 0.043784 0.447652
vt 0.155738 0.381952
vt 0.154963 0.375166
vt 0.154249 0.368995
vt 0.042648 0.480638
vt 0.043130 0.473272
vt 0.043489 0.465107
vt 0.042060 0.486920
vt 0.039598 0.480730
vt 0.039544 0.473381
vt 0.039504 0.465228
vt 0.039479 0.456585
vt 0.039471 0.447783
vt 0.154963 0.382369
vt 0.153443 0.375983
vt 0.152042 0.370181
vt 0.035174 0.448094
vt 0.154249 0.383045
vt 0.152042 0.377310
vt 0.150008 0.372108
vt 0.039664 0.486993
vt 0.036560 0.480950
vt 0.035972 0.473639
vt 0.035534 0.465515
vt 0.035265 0.456889
vt 0.037277 0.487166
vt 0.033650 0.481288
vt 0.032550 0.474037
vt 0.031733 0.465957
vt 0.031230 0.457359
vt 0.031060 0.448572
vt 0.153623 0.383956
vt 0.150814 0.379096
vt 0.148226 0.374700
vt 0.130661 0.436682
vt 0.134045 0.433858
vt 0.151326 0.438128
vt 0.089844 0.432107
vt 0.081645 0.436517
vt 0.082058 0.431775
vt 0.153109 0.385065
vt 0.060257 0.451665
vt 0.056503 0.445897
vt 0.060622 0.445979
vt 0.071087 0.443864
vt 0.067299 0.440473
vt 0.071433 0.440510
vt 0.149806 0.381272
vt 0.071087 0.484902
vt 0.066740 0.480618
vt 0.070874 0.480655
vt 0.146763 0.377859
vt 0.071087 0.468472
vt 0.067299 0.465080
vt 0.071433 0.465118
vt 0.115927 0.444057
vt 0.110409 0.443024
vt 0.110701 0.439671
vt 0.065406 0.474563
vt 0.061227 0.468353
vt 0.065356 0.468265
vt 0.104103 0.440076
vt 0.104446 0.436133
vt 0.061277 0.462019
vt 0.065406 0.461930
vt 0.097023 0.437960
vt 0.097404 0.433579
vt 0.061066 0.495008
vt 0.056503 0.491821
vt 0.060622 0.491903
vt 0.089440 0.436759
vt 0.066668 0.476355
vt 0.070802 0.476393
vt 0.066517 0.494762
vt 0.061992 0.490968
vt 0.066121 0.490880
vt 0.103834 0.444825
vt 0.071087 0.460295
vt 0.066740 0.456010
vt 0.070874 0.456048
vt 0.096723 0.443238
vt 0.061426 0.455891
vt 0.065555 0.455803
vt 0.089122 0.442361
vt 0.056139 0.487666
vt 0.060257 0.487748
vt 0.081321 0.442229
vt 0.152727 0.386330
vt 0.061667 0.450206
vt 0.065796 0.450118
vt 0.061667 0.486180
vt 0.065796 0.486092
vt 0.149058 0.383754
vt 0.061992 0.445182
vt 0.066121 0.445094
vt 0.145676 0.381463
vt 0.062389 0.441012
vt 0.066517 0.440923
vt 0.115698 0.446692
vt 0.110180 0.447063
vt 0.071433 0.464364
vt 0.066953 0.460257
vt 0.055868 0.482621
vt 0.059986 0.482703
vt 0.148597 0.386448
vt 0.066740 0.472242
vt 0.070874 0.472279
vt 0.119642 0.453124
vt 0.115394 0.453455
vt 0.115518 0.449865
vt 0.066668 0.451748
vt 0.070802 0.451785
vt 0.110022 0.451633
vt 0.055701 0.476880
vt 0.059819 0.476961
vt 0.103648 0.450198
vt 0.055644 0.470663
vt 0.059763 0.470744
vt 0.096517 0.449208
vt 0.061426 0.480671
vt 0.065555 0.480582
vt 0.088903 0.448699
vt 0.066740 0.447634
vt 0.070874 0.447671
vt 0.081098 0.448691
vt 0.152492 0.387704
vt 0.056948 0.440926
vt 0.061066 0.441007
vt 0.096412 0.455641
vt 0.055701 0.464209
vt 0.059819 0.464291
vt 0.088791 0.455529
vt 0.061277 0.474651
vt 0.080984 0.455655
vt 0.152413 0.389132
vt 0.055868 0.457767
vt 0.059986 0.457849
vt 0.066953 0.443827
vt 0.148441 0.389249
vt 0.071433 0.488971
vt 0.066953 0.484865
vt 0.119557 0.455597
vt 0.115330 0.457324
vt 0.066953 0.468434
vt 0.109941 0.456557
vt 0.056139 0.451584
vt 0.103553 0.455988
vt 0.152492 0.390560
vt 0.148597 0.392051
vt 0.038993 0.429055
vt 0.043654 0.429658
vt 0.042454 0.433493
vt 0.119513 0.461016
vt 0.115330 0.461323
vt 0.058628 0.366299
vt 0.054295 0.368886
vt 0.054545 0.364443
vt 0.109941 0.461646
vt 0.062473 0.435570
vt 0.057889 0.433608
vt 0.061273 0.431486
vt 0.103553 0.461973
vt 0.032143 0.388520
vt 0.035982 0.384252
vt 0.034579 0.390076
vt 0.096412 0.462291
vt 0.073596 0.400022
vt 0.071062 0.406661
vt 0.071062 0.400199
vt 0.088791 0.462588
vt 0.036049 0.423558
vt 0.040607 0.425752
vt 0.080984 0.462852
vt 0.062473 0.369508
vt 0.057889 0.370519
vt 0.058628 0.437981
vt 0.054295 0.434495
vt 0.103648 0.467922
vt 0.096517 0.468901
vt 0.050382 0.438558
vt 0.054545 0.438990
vt 0.088903 0.469605
vt 0.033736 0.381902
vt 0.038017 0.379090
vt 0.081098 0.470007
vt 0.152727 0.391933
vt 0.073596 0.407364
vt 0.070348 0.412925
vt 0.033736 0.417213
vt 0.038017 0.420914
vt 0.149058 0.394744
vt 0.065935 0.373946
vt 0.061273 0.373343
vt 0.119557 0.463754
vt 0.115394 0.465298
vt 0.036049 0.376037
vt 0.040608 0.374789
vt 0.110022 0.466705
vt 0.072784 0.414481
vt 0.068946 0.418750
vt 0.032143 0.410265
vt 0.035981 0.415329
vt 0.038993 0.371151
vt 0.043654 0.371515
vt 0.119642 0.466371
vt 0.115518 0.469097
vt 0.068878 0.379443
vt 0.064320 0.377250
vt 0.110180 0.471540
vt 0.046300 0.436702
vt 0.050632 0.434115
vt 0.103834 0.473607
vt 0.042454 0.367431
vt 0.047039 0.369394
vt 0.096723 0.475218
vt 0.071191 0.421099
vt 0.066910 0.423911
vt 0.089122 0.476311
vt 0.031331 0.402979
vt 0.034579 0.409214
vt 0.081321 0.476845
vt 0.153109 0.393199
vt 0.071191 0.385788
vt 0.066910 0.382088
vt 0.046300 0.365020
vt 0.050632 0.368506
vt 0.149806 0.397227
vt 0.068878 0.426964
vt 0.064320 0.428212
vt 0.097023 0.480999
vt 0.089440 0.482448
vt 0.033865 0.396340
vt 0.033865 0.402802
vt 0.081645 0.483102
vt 0.153623 0.394308
vt 0.072784 0.392737
vt 0.068946 0.387672
vt 0.047038 0.432482
vt 0.150814 0.399403
vt 0.050382 0.364012
vt 0.146763 0.401022
vt 0.148226 0.404181
vt 0.065935 0.431850
vt 0.115698 0.472573
vt 0.110409 0.475964
vt 0.031331 0.395637
vt 0.104103 0.478809
vt 0.070348 0.393787
vt 0.152042 0.401189
vt 0.150008 0.406773
vt 0.075975 0.431965
vt 0.115927 0.475593
vt 0.110701 0.479808
vt 0.074966 0.387678
vt 0.104446 0.483330
vt 0.075153 0.409394
vt 0.097404 0.486021
vt 0.075015 0.448882
vt 0.089844 0.487780
vt 0.075455 0.415912
vt 0.082058 0.488538
vt 0.154249 0.395218
vt 0.074901 0.455846
vt 0.128115 0.409880
vt 0.075862 0.421637
vt 0.097852 0.490092
vt 0.090320 0.492102
vt 0.074901 0.463043
vt 0.082543 0.492944
vt 0.154963 0.395895
vt 0.075015 0.470198
vt 0.076358 0.426348
vt 0.153443 0.402516
vt 0.132280 0.409934
vt 0.152042 0.408700
vt 0.136593 0.409803
vt 0.116197 0.478041
vt 0.111044 0.482924
vt 0.075238 0.477036
vt 0.104849 0.486993
vt 0.055201 0.441515
vt 0.075562 0.483293
vt 0.051803 0.441105
vt 0.150814 0.414210
vt 0.154249 0.409886
vt 0.153623 0.415720
vt 0.145004 0.402175
vt 0.140889 0.409493
vt 0.123441 0.376892
vt 0.127745 0.369904
vt 0.126266 0.377234
vt 0.075975 0.488729
vt 0.122027 0.384992
vt 0.125166 0.385372
vt 0.047948 0.440868
vt 0.121157 0.393603
vt 0.124489 0.394006
vt 0.124260 0.402805
vt 0.120863 0.409233
vt 0.120863 0.402394
vt 0.155738 0.396311
vt 0.043784 0.440814
vt 0.075862 0.368520
vt 0.154963 0.403333
vt 0.124260 0.409643
vt 0.074966 0.402333
vt 0.035174 0.441255
vt 0.075153 0.380647
vt 0.039471 0.440944
vt 0.075455 0.374178
vt 0.156544 0.416230
vt 0.075238 0.442420
vt 0.075562 0.436708
vt 0.074904 0.395001
vt 0.138787 0.363582
vt 0.119616 0.395079
vt 0.050721 0.481134
vt 0.046515 0.487082
vt 0.034991 0.487432
vt 0.137639 0.432224
vt 0.141302 0.431844
vt 0.144895 0.432732
vt 0.148280 0.434854
vt 0.153917 0.442428
vt 0.127614 0.440588
vt 0.155952 0.447590
vt 0.125024 0.445426
vt 0.157355 0.453414
vt 0.158069 0.459678
vt 0.122988 0.451010
vt 0.158069 0.466140
vt 0.120872 0.463537
vt 0.157355 0.472552
vt 0.120872 0.469999
vt 0.155952 0.478668
vt 0.153917 0.484252
vt 0.121586 0.476263
vt 0.151327 0.489090
vt 0.125024 0.487249
vt 0.148280 0.492996
vt 0.127614 0.491550
vt 0.144895 0.495820
vt 0.141302 0.497454
vt 0.130661 0.494824
vt 0.137639 0.497834
vt 0.134045 0.496946
vt 0.122988 0.482088
vt 0.121586 0.457125
vt 0.056948 0.494926
vt 0.062389 0.494850
vt 0.067299 0.464326
vt 0.067299 0.488934
vt 0.119513 0.458262
vt 0.076924 0.429864
vt 0.145004 0.409014
vt 0.125343 0.369614
vt 0.076460 0.493135
vt 0.031060 0.441734
vn 0.0976 0.0976 -0.9904
vn 0.0097 0.9951 -0.0980
vn 0.0286 0.9565 -0.2902
vn 0.0464 0.8810 -0.4709
vn 0.0624 0.7715 -0.6332
vn 0.0759 0.6326 -0.7708
vn 0.0865 0.4696 -0.8786
vn 0.0938 0.2890 -0.9527
vn 0.2563 0.4696 -0.8448
vn 0.2779 0.2890 -0.9161
vn 0.2889 0.0975 -0.9524
vn 0.0286 0.9951 -0.0942
vn 0.0846 0.9566 -0.2790
vn 0.1374 0.8810 -0.4528
vn 0.1847 0.7715 -0.6088
vn 0.2248 0.6326 -0.7412
vn 0.2230 0.8810 -0.4173
vn 0.2999 0.7715 -0.5611
vn 0.3651 0.6326 -0.6831
vn 0.4162 0.4696 -0.7786
vn 0.4513 0.2890 -0.8443
vn 0.4691 0.0975 -0.8777
vn 0.0464 0.9951 -0.0869
vn 0.1374 0.9565 -0.2571
vn 0.6073 0.2890 -0.7400
vn 0.6314 0.0975 -0.7693
vn 0.0625 0.9951 -0.0761
vn 0.1850 0.9565 -0.2254
vn 0.3002 0.8810 -0.3658
vn 0.4036 0.7715 -0.4918
vn 0.4913 0.6326 -0.5987
vn 0.5601 0.4696 -0.6825
vn 0.4918 0.7715 -0.4036
vn 0.5987 0.6326 -0.4913
vn 0.6825 0.4696 -0.5601
vn 0.7400 0.2890 -0.6073
vn 0.7693 0.0975 -0.6314
vn 0.0761 0.9951 -0.0625
vn 0.2254 0.9566 -0.1850
vn 0.3658 0.8810 -0.3002
vn 0.8777 0.0975 -0.4691
vn 0.0869 0.9951 -0.0464
vn 0.2571 0.9565 -0.1374
vn 0.4173 0.8810 -0.2230
vn 0.5611 0.7715 -0.2999
vn 0.6831 0.6326 -0.3651
vn 0.7786 0.4696 -0.4162
vn 0.8443 0.2890 -0.4513
vn 0.6088 0.7715 -0.1847
vn 0.7412 0.6326 -0.2248
vn 0.8448 0.4696 -0.2563
vn 0.9161 0.2890 -0.2779
vn 0.9524 0.0975 -0.2889
vn 0.0942 0.9951 -0.0286
vn 0.2790 0.9565 -0.0846
vn 0.4528 0.8810 -0.1374
vn 0.9904 0.0976 -0.0975
vn 0.0980 0.9951 -0.0097
vn 0.2902 0.9565 -0.0286
vn 0.4709 0.8810 -0.0464
vn 0.6332 0.7715 -0.0624
vn 0.7708 0.6326 -0.0759
vn 0.8786 0.4696 -0.0865
vn 0.9527 0.2890 -0.0938
vn 0.7708 0.6326 0.0759
vn 0.8786 0.4696 0.0865
vn 0.9527 0.2890 0.0938
vn 0.9904 0.0976 0.0975
vn 0.0980 0.9951 0.0097
vn 0.2902 0.9565 0.0286
vn 0.4709 0.8810 0.0464
vn 0.6332 0.7715 0.0624
vn 0.0942 0.9951 0.0286
vn 0.2790 0.9565 0.0846
vn 0.4528 0.8810 0.1374
vn 0.6088 0.7715 0.1847
vn 0.7412 0.6326 0.2248
vn 0.8448 0.4696 0.2563
vn 0.9161 0.2890 0.2779
vn 0.9524 0.0976 0.2889
vn 0.6831 0.6326 0.3651
vn 0.7786 0.4696 0.4162
vn 0.8443 0.2890 0.4513
vn 0.8777 0.0976 0.4691
vn 0.0869 0.9951 0.0464
vn 0.2571 0.9565 0.1374
vn 0.4173 0.8810 0.2230
vn 0.5611 0.7715 0.2999
vn 0.2254 0.9565 0.1850
vn 0.3658 0.8810 0.3002
vn 0.4918 0.7715 0.4036
vn 0.5987 0.6326 0.4913
vn 0.6825 0.4696 0.5601
vn 0.7400 0.2890 0.6073
vn 0.7693 0.0975 0.6314
vn 0.0761 0.9951 0.0625
vn 0.5601 0.4696 0.6825
vn 0.6073 0.2890 0.7400
vn 0.6314 0.0976 0.7693
vn 0.0625 0.9951 0.0761
vn 0.1850 0.9566 0.2254
vn 0.3002 0.8810 0.3658
vn 0.4036 0.7715 0.4918
vn 0.4913 0.6326 0.5987
vn 0.2231 0.8810 0.4173
vn 0.2999 0.7715 0.5611
vn 0.3651 0.6326 0.6831
vn 0.4162 0.4696 0.7786
vn 0.4513 0.2890 0.8443
vn 0.4691 0.0976 0.8777
vn 0.0464 0.9951 0.0869
vn 0.1374 0.9566 0.2571
vn 0.2779 0.2890 0.9161
vn 0.2889 0.0976 0.9524
vn 0.0286 0.9951 0.0942
vn 0.0846 0.9565 0.2790
vn 0.1374 0.8810 0.4528
vn 0.1847 0.7715 0.6088
vn 0.2248 0.6326 0.7412
vn 0.2563 0.4696 0.8448
vn 0.0464 0.8810 0.4709
vn 0.0624 0.7715 0.6332
vn 0.0759 0.6326 0.7708
vn 0.0865 0.4696 0.8786
vn 0.0938 0.2890 0.9527
vn 0.0975 0.0976 0.9904
vn 0.0097 0.9951 0.0980
vn 0.0286 0.9565 0.2902
vn -0.0938 0.2890 0.9527
vn -0.0976 0.0976 0.9904
vn -0.0097 0.9951 0.0980
vn -0.0286 0.9565 0.2902
vn -0.0464 0.8810 0.4709
vn -0.0624 0.7715 0.6332
vn -0.0759 0.6326 0.7708
vn -0.0865 0.4696 0.8786
vn -0.1847 0.7715 0.6088
vn -0.2248 0.6326 0.7412
vn -0.2563 0.4696 0.8448
vn -0.2779 0.2890 0.9161
vn -0.2889 0.0975 0.9524
vn -0.0286 0.9951 0.0942
vn -0.0846 0.9565 0.2790
vn -0.1374 0.8810 0.4528
vn -0.4691 0.0975 0.8777
vn -0.0464 0.9951 0.0869
vn -0.1374 0.9566 0.2571
vn -0.2230 0.8810 0.4173
vn -0.2999 0.7715 0.5611
vn -0.3651 0.6326 0.6831
vn -0.4162 0.4696 0.7786
vn -0.4513 0.2890 0.8443
vn -0.4036 0.7715 0.4918
vn -0.4913 0.6326 0.5987
vn -0.5601 0.4696 0.6825
vn -0.6073 0.2890 0.7400
vn -0.6314 0.0976 0.7693
vn -0.0625 0.9951 0.0761
vn -0.1850 0.9565 0.2254
vn -0.3002 0.8810 0.3658
vn 0.0000 -1.0000 -0.0000
vn -0.7693 0.0976 0.6314
vn -0.0761 0.9951 0.0625
vn 0.8819 0.0000 -0.4714
vn 0.2903 0.0000 0.9569
vn -0.2254 0.9566 0.1850
vn 0.4714 0.0000 -0.8819
vn -0.3658 0.8810 0.3002
vn -0.2903 0.0000 -0.9569
vn -0.4918 0.7715 0.4036
vn -0.9569 0.0000 -0.2903
vn -0.5987 0.6326 0.4913
vn -0.9952 0.0000 -0.0980
vn -0.6825 0.4696 0.5601
vn 0.4714 0.0000 0.8819
vn -0.7400 0.2890 0.6073
vn 0.2903 0.0000 -0.9569
vn -0.4714 0.0000 -0.8819
vn -0.6831 0.6326 0.3651
vn -0.4714 0.0000 0.8819
vn -0.7786 0.4696 0.4162
vn -0.9952 0.0000 0.0980
vn -0.8443 0.2890 0.4513
vn 0.6344 0.0000 0.7730
vn -0.8777 0.0976 0.4691
vn -0.0869 0.9951 0.0464
vn -0.9569 0.0000 0.2903
vn -0.6344 0.0000 -0.7730
vn -0.2571 0.9566 0.1374
vn -0.8819 0.0000 0.4714
vn -0.4173 0.8810 0.2230
vn -0.7730 0.0000 0.6344
vn -0.5611 0.7715 0.2999
vn -0.6344 0.0000 0.7730
vn 0.7730 0.0000 0.6344
vn -0.2790 0.9565 0.0846
vn 0.0980 0.0000 -0.9952
vn -0.4528 0.8810 0.1374
vn -0.2903 0.0000 0.9569
vn -0.6088 0.7715 0.1847
vn 0.8819 0.0000 0.4714
vn -0.7412 0.6326 0.2248
vn 0.9569 0.0000 0.2903
vn -0.8448 0.4696 0.2563
vn -0.7730 0.0000 -0.6344
vn -0.9161 0.2890 0.2779
vn -0.0980 0.0000 0.9952
vn -0.9524 0.0976 0.2889
vn -0.0942 0.9951 0.0286
vn 0.7730 0.0000 -0.6344
vn -0.8786 0.4696 0.0865
vn 0.9952 0.0000 0.0980
vn -0.9527 0.2890 0.0938
vn -0.8819 0.0000 -0.4714
vn -0.9904 0.0976 0.0975
vn -0.0980 0.9951 0.0097
vn 0.9952 0.0000 -0.0980
vn 0.0980 0.0000 0.9952
vn -0.2902 0.9565 0.0286
vn 0.6344 0.0000 -0.7730
vn -0.4709 0.8810 0.0464
vn -0.0980 0.0000 -0.9952
vn -0.6332 0.7715 0.0624
vn 0.9569 0.0000 -0.2903
vn -0.7708 0.6326 0.0759
vn -0.2902 0.9565 -0.0286
vn -0.4709 0.8810 -0.0464
vn -0.6332 0.7715 -0.0624
vn -0.7708 0.6326 -0.0759
vn -0.8786 0.4696 -0.0865
vn -0.9527 0.2890 -0.0938
vn -0.9904 0.0976 -0.0975
vn -0.0980 0.9951 -0.0097
vn -0.8448 0.4696 -0.2563
vn -0.9161 0.2890 -0.2779
vn -0.9524 0.0975 -0.2889
vn -0.0942 0.9951 -0.0286
vn -0.2790 0.9565 -0.0846
vn -0.4528 0.8810 -0.1374
vn -0.6088 0.7715 -0.1847
vn -0.7412 0.6326 -0.2248
vn -0.4173 0.8810 -0.2230
vn -0.5611 0.7715 -0.2999
vn -0.6831 0.6326 -0.3651
vn -0.7786 0.4696 -0.4162
vn -0.8443 0.2890 -0.4513
vn -0.8777 0.0975 -0.4691
vn -0.0869 0.9951 -0.0464
vn -0.2571 0.9566 -0.1374
vn -0.7400 0.2890 -0.6073
vn -0.7693 0.0976 -0.6314
vn -0.0761 0.9951 -0.0625
vn -0.2254 0.9565 -0.1850
vn -0.3658 0.8810 -0.3002
vn -0.4918 0.7715 -0.4036
vn -0.5987 0.6326 -0.4913
vn -0.6825 0.4696 -0.5601
vn -0.3002 0.8810 -0.3658
vn -0.4036 0.7715 -0.4918
vn -0.4913 0.6326 -0.5987
vn -0.5601 0.4696 -0.6825
vn -0.6073 0.2890 -0.7400
vn -0.6314 0.0976 -0.7693
vn -0.0625 0.9951 -0.0761
vn -0.1850 0.9565 -0.2254
vn -0.4513 0.2890 -0.8443
vn -0.4691 0.0976 -0.8777
vn -0.0464 0.9951 -0.0869
vn -0.1374 0.9566 -0.2571
vn -0.2230 0.8810 -0.4173
vn -0.2999 0.7715 -0.5611
vn -0.3651 0.6326 -0.6831
vn -0.4162 0.4696 -0.7786
vn -0.1847 0.7715 -0.6088
vn -0.2248 0.6326 -0.7412
vn -0.2563 0.4696 -0.8448
vn -0.2779 0.2890 -0.9161
vn -0.2889 0.0976 -0.9524
vn -0.0286 0.9951 -0.0942
vn -0.0846 0.9565 -0.2790
vn -0.1374 0.8810 -0.4528
vn -0.0976 0.0975 -0.9904
vn -0.0097 0.9951 -0.0980
vn -0.0286 0.9565 -0.2902
vn -0.0464 0.8810 -0.4709
vn -0.0624 0.7715 -0.6332
vn -0.0759 0.6326 -0.7708
vn -0.0865 0.4696 -0.8786
vn -0.0938 0.2890 -0.9527
vn 0.0975 0.0976 -0.9904
vn 0.0846 0.9565 -0.2790
vn 0.4691 0.0976 -0.8777
vn 0.1374 0.9566 -0.2571
vn 0.6314 0.0976 -0.7693
vn 0.2254 0.9565 -0.1850
vn 0.8777 0.0976 -0.4691
vn 0.2571 0.9566 -0.1374
vn 0.4173 0.8810 -0.2231
vn 0.9524 0.0976 -0.2889
vn 0.4528 0.8810 -0.1373
vn 0.9904 0.0975 -0.0975
vn 0.9524 0.0975 0.2889
vn 0.2571 0.9566 0.1374
vn 0.4173 0.8810 0.2231
vn 0.7693 0.0976 0.6314
vn 0.6314 0.0975 0.7693
vn 0.1850 0.9565 0.2254
vn 0.2230 0.8810 0.4173
vn 0.4691 0.0975 0.8777
vn 0.1374 0.9565 0.2571
vn -0.0975 0.0976 0.9904
vn -0.2889 0.0976 0.9524
vn -0.4691 0.0976 0.8777
vn -0.1374 0.9565 0.2571
vn -0.2254 0.9565 0.1850
vn -0.8777 0.0976 0.4692
vn -0.2571 0.9565 0.1374
vn -0.4173 0.8810 0.2231
vn -0.9904 0.0976 -0.0976
vn -0.9524 0.0976 -0.2889
vn -0.4173 0.8810 -0.2231
vn -0.8777 0.0976 -0.4691
vn -0.2571 0.9565 -0.1374
vn -0.4691 0.0975 -0.8777
vn -0.1374 0.9565 -0.2571
vn -0.0976 0.0976 -0.9904
s off
f 7/1/1 16/2/1 8/3/1
f 1/4/2 168/5/2 9/6/2
f 1/4/3 10/7/3 2/8/3
f 2/8/4 11/9/4 3/10/4
f 3/11/5 12/12/5 4/13/5
f 4/13/6 13/14/6 5/15/6
f 5/15/7 14/16/7 6/17/7
f 6/17/8 15/18/8 7/1/8
f 13/14/9 22/19/9 14/16/9
f 14/16/10 23/20/10 15/18/10
f 15/18/11 24/21/11 16/2/11
f 9/6/12 168/5/12 17/22/12
f 9/6/13 18/23/13 10/7/13
f 10/7/14 19/24/14 11/9/14
f 11/25/15 20/26/15 12/12/15
f 12/12/16 21/27/16 13/14/16
f 18/23/17 27/28/17 19/24/17
f 19/29/18 28/30/18 20/26/18
f 20/26/19 29/31/19 21/27/19
f 21/27/20 30/32/20 22/19/20
f 22/19/21 31/33/21 23/20/21
f 23/20/22 32/34/22 24/21/22
f 17/22/23 168/5/23 25/35/23
f 17/22/24 26/36/24 18/23/24
f 30/37/25 39/38/25 31/39/25
f 31/39/26 40/40/26 32/41/26
f 25/35/27 168/5/27 33/42/27
f 25/35/28 34/43/28 26/36/28
f 26/36/29 35/44/29 27/28/29
f 27/45/30 36/46/30 28/47/30
f 28/47/31 37/48/31 29/49/31
f 29/49/32 38/50/32 30/37/32
f 35/51/33 44/52/33 36/46/33
f 36/46/34 45/53/34 37/48/34
f 37/48/35 46/54/35 38/50/35
f 38/50/36 47/55/36 39/38/36
f 39/38/37 48/56/37 40/40/37
f 33/42/38 168/5/38 41/57/38
f 33/42/39 42/58/39 34/43/39
f 34/43/40 43/59/40 35/44/40
f 47/55/41 56/60/41 48/56/41
f 41/57/42 168/5/42 49/61/42
f 41/57/43 50/62/43 42/58/43
f 42/63/44 51/64/44 43/65/44
f 43/65/45 52/66/45 44/52/45
f 44/52/46 53/67/46 45/53/46
f 45/53/47 54/68/47 46/54/47
f 46/54/48 55/69/48 47/55/48
f 51/64/49 60/70/49 52/66/49
f 52/66/50 61/71/50 53/67/50
f 53/67/51 62/72/51 54/68/51
f 54/68/52 63/73/52 55/69/52
f 55/69/53 64/74/53 56/60/53
f 49/61/54 168/5/54 57/75/54
f 49/61/55 58/76/55 50/62/55
f 50/77/56 59/78/56 51/64/56
f 63/73/57 72/79/57 64/74/57
f 57/75/58 168/5/58 65/80/58
f 57/75/59 66/81/59 58/76/59
f 58/82/60 67/83/60 59/78/60
f 59/78/61 68/84/61 60/70/61
f 60/70/62 69/85/62 61/71/62
f 61/71/63 70/86/63 62/72/63
f 62/72/64 71/87/64 63/73/64
f 69/85/65 76/88/65 77/89/65
f 70/86/66 77/89/66 78/90/66
f 71/87/67 78/90/67 79/91/67
f 72/79/68 79/91/68 80/92/68
f 65/80/69 168/5/69 73/93/69
f 66/81/70 73/93/70 74/94/70
f 67/83/71 74/95/71 75/96/71
f 68/84/72 75/96/72 76/88/72
f 73/93/73 168/5/73 81/97/73
f 74/94/74 81/97/74 82/98/74
f 75/96/75 82/99/75 83/100/75
f 76/88/76 83/100/76 84/101/76
f 77/89/77 84/101/77 85/102/77
f 78/90/78 85/102/78 86/103/78
f 79/91/79 86/103/79 87/104/79
f 80/92/80 87/104/80 88/105/80
f 85/102/81 92/106/81 93/107/81
f 86/103/82 93/107/82 94/108/82
f 87/104/83 94/108/83 95/109/83
f 88/105/84 95/109/84 96/110/84
f 81/97/85 168/5/85 89/111/85
f 82/98/86 89/111/86 90/112/86
f 83/100/87 90/113/87 91/114/87
f 84/101/88 91/114/88 92/106/88
f 90/112/89 97/115/89 98/116/89
f 91/117/90 98/116/90 99/118/90
f 92/106/91 99/119/91 100/120/91
f 93/107/92 100/120/92 101/121/92
f 94/108/93 101/121/93 102/122/93
f 95/109/94 102/122/94 103/123/94
f 96/110/95 103/123/95 104/124/95
f 89/111/96 168/5/96 97/115/96
f 102/122/97 109/125/97 110/126/97
f 103/123/98 110/126/98 111/127/98
f 104/124/99 111/127/99 112/128/99
f 97/115/100 168/5/100 105/129/100
f 98/116/101 105/129/101 106/130/101
f 99/118/102 106/130/102 107/131/102
f 100/120/103 107/132/103 108/133/103
f 101/121/104 108/133/104 109/125/104
f 107/131/105 114/134/105 115/135/105
f 108/136/106 115/135/106 116/137/106
f 109/125/107 116/138/107 117/139/107
f 110/126/108 117/139/108 118/140/108
f 111/127/109 118/140/109 119/141/109
f 112/128/110 119/141/110 120/142/110
f 105/129/111 168/5/111 113/143/111
f 106/130/112 113/143/112 114/134/112
f 119/144/113 126/145/113 127/146/113
f 120/147/114 127/146/114 128/148/114
f 113/143/115 168/5/115 121/149/115
f 114/134/116 121/149/116 122/150/116
f 115/135/117 122/150/117 123/151/117
f 116/137/118 123/151/118 124/152/118
f 117/153/119 124/154/119 125/155/119
f 118/156/120 125/155/120 126/145/120
f 123/151/121 130/157/121 131/158/121
f 124/154/122 131/159/122 132/160/122
f 125/155/123 132/160/123 133/161/123
f 126/145/124 133/161/124 134/162/124
f 127/146/125 134/162/125 135/163/125
f 128/148/126 135/163/126 136/164/126
f 121/149/127 168/5/127 129/165/127
f 122/150/128 129/165/128 130/157/128
f 134/162/129 143/166/129 135/163/129
f 135/163/130 144/167/130 136/164/130
f 129/165/131 168/5/131 137/168/131
f 129/165/132 138/169/132 130/157/132
f 130/157/133 139/170/133 131/158/133
f 131/159/134 140/171/134 132/160/134
f 132/160/135 141/172/135 133/161/135
f 133/161/136 142/173/136 134/162/136
f 139/174/137 148/175/137 140/171/137
f 140/171/138 149/176/138 141/172/138
f 141/172/139 150/177/139 142/173/139
f 142/173/140 151/178/140 143/166/140
f 143/166/141 152/179/141 144/167/141
f 137/168/142 168/5/142 145/180/142
f 137/168/143 146/181/143 138/169/143
f 138/169/144 147/182/144 139/170/144
f 151/178/145 160/183/145 152/179/145
f 145/180/146 168/5/146 153/184/146
f 145/180/147 154/185/147 146/181/147
f 146/181/148 155/186/148 147/182/148
f 147/187/149 156/188/149 148/175/149
f 148/175/150 157/189/150 149/176/150
f 149/176/151 158/190/151 150/177/151
f 150/177/152 159/191/152 151/178/152
f 155/192/153 172/193/153 156/188/153
f 156/188/154 173/194/154 157/189/154
f 157/189/155 174/195/155 158/190/155
f 158/190/156 175/196/156 159/191/156
f 159/191/157 176/197/157 160/183/157
f 153/184/158 168/5/158 169/198/158
f 153/184/159 170/199/159 154/185/159
f 154/185/160 171/200/160 155/186/160
f 163/201/161 162/202/161 222/203/161
f 175/204/162 191/205/162 176/206/162
f 169/198/163 168/5/163 184/207/163
f 240/208/164 212/209/164 239/210/164
f 257/211/165 195/212/165 256/213/165
f 169/198/166 185/214/166 170/199/166
f 237/215/167 223/216/167 228/217/167
f 170/199/168 186/218/168 171/200/168
f 297/219/169 162/220/169 288/221/169
f 171/222/170 187/223/170 172/224/170
f 284/225/171 167/226/171 283/227/171
f 172/224/172 188/228/172 173/229/172
f 283/227/173 177/230/173 282/231/173
f 173/229/174 189/232/174 174/233/174
f 256/234/175 196/235/175 255/236/175
f 174/233/176 190/237/176 175/204/176
f 228/217/177 224/238/177 227/239/177
f 288/240/178 163/241/178 287/242/178
f 187/223/179 203/243/179 188/228/179
f 269/244/180 183/245/180 268/246/180
f 188/228/181 204/247/181 189/232/181
f 282/231/182 178/248/182 273/249/182
f 189/232/183 205/250/183 190/237/183
f 255/236/184 197/251/184 254/252/184
f 190/237/185 206/253/185 191/205/185
f 184/207/186 168/5/186 199/254/186
f 273/249/187 179/255/187 272/256/187
f 287/242/188 164/257/188 286/258/188
f 184/207/189 200/259/189 185/214/189
f 272/256/190 180/260/190 271/261/190
f 185/214/191 201/262/191 186/218/191
f 271/261/192 181/263/192 270/264/192
f 186/265/193 202/266/193 187/223/193
f 270/267/194 182/268/194 269/244/194
f 254/252/195 198/269/195 253/270/195
f 199/254/196 215/271/196 200/259/196
f 227/239/197 225/272/197 226/273/197
f 200/274/198 216/275/198 201/276/198
f 268/246/199 192/277/199 267/278/199
f 201/276/200 217/279/200 202/266/200
f 253/270/201 207/280/201 252/281/201
f 202/266/202 218/282/202 203/243/202
f 252/281/203 208/283/203 243/284/203
f 203/243/204 219/285/204 204/247/204
f 286/258/205 165/286/205 285/287/205
f 204/247/206 220/288/206 205/250/206
f 267/278/207 193/289/207 258/290/207
f 205/250/208 221/291/208 206/253/208
f 199/254/209 168/5/209 214/292/209
f 239/210/210 213/293/210 238/294/210
f 218/282/211 234/295/211 219/285/211
f 243/284/212 209/296/212 242/297/212
f 219/285/213 235/298/213 220/288/213
f 285/287/214 166/299/214 284/225/214
f 220/288/215 236/300/215 221/291/215
f 214/292/216 168/5/216 229/301/216
f 242/297/217 210/302/217 241/303/217
f 258/290/218 194/304/218 257/211/218
f 214/292/219 230/305/219 215/271/219
f 238/306/220 222/307/220 237/215/220
f 215/308/221 231/309/221 216/275/221
f 226/273/222 161/310/222 297/219/222
f 216/275/223 232/311/223 217/279/223
f 241/303/224 211/312/224 240/208/224
f 217/279/225 233/313/225 218/282/225
f 230/305/226 244/314/226 245/315/226
f 349/316/161 237/317/161 350/318/161
f 231/309/227 245/319/227 246/320/227
f 327/321/161 267/322/161 328/323/161
f 232/311/228 246/320/228 247/324/228
f 299/325/161 297/326/161 288/327/161
f 233/313/229 247/324/229 248/328/229
f 343/329/161 253/330/161 252/331/161
f 234/295/230 248/328/230 249/332/230
f 313/333/161 283/334/161 282/335/161
f 235/298/231 249/332/231 250/336/231
f 348/337/161 238/338/161 349/316/161
f 236/300/232 250/336/232 251/339/232
f 229/301/233 168/5/233 244/314/233
f 318/340/161 268/341/161 327/321/161
f 298/342/161 226/343/161 297/326/161
f 249/332/234 263/344/234 264/345/234
f 352/346/161 226/343/161 353/347/161
f 250/336/235 264/345/235 265/348/235
f 342/349/161 254/350/161 253/330/161
f 251/339/236 265/348/236 266/351/236
f 244/314/237 168/5/237 259/352/237
f 312/353/161 284/354/161 283/334/161
f 347/355/161 239/356/161 348/337/161
f 245/315/238 259/352/238 260/357/238
f 317/358/161 269/359/161 318/340/161
f 246/320/239 260/360/239 261/361/239
f 333/362/161 255/363/161 254/350/161
f 247/324/240 261/361/240 262/364/240
f 303/365/161 285/366/161 284/354/161
f 248/328/241 262/364/241 263/344/241
f 346/367/161 240/368/161 347/355/161
f 332/369/161 256/370/161 255/363/161
f 261/361/242 275/371/242 276/372/242
f 316/373/161 270/374/161 317/358/161
f 262/364/243 276/372/243 277/375/243
f 351/376/161 227/377/161 352/346/161
f 263/344/244 277/375/244 278/378/244
f 331/379/161 257/380/161 256/370/161
f 264/345/245 278/378/245 279/381/245
f 302/382/161 286/383/161 285/366/161
f 265/348/246 279/381/246 280/384/246
f 345/385/161 241/386/161 346/367/161
f 266/351/247 280/384/247 281/387/247
f 259/352/248 168/5/248 274/388/248
f 315/389/161 271/390/161 316/373/161
f 330/391/161 258/392/161 257/380/161
f 260/357/249 274/388/249 275/393/249
f 301/394/161 287/395/161 286/383/161
f 280/384/250 294/396/250 295/397/250
f 345/385/161 243/398/161 242/399/161
f 281/387/251 295/397/251 296/400/251
f 274/388/252 168/5/252 289/401/252
f 314/402/161 272/403/161 315/389/161
f 350/318/161 228/404/161 351/376/161
f 275/393/253 289/401/253 290/405/253
f 328/323/161 258/392/161 329/406/161
f 276/407/254 290/405/254 291/408/254
f 300/409/161 288/327/161 287/395/161
f 277/375/255 291/410/255 292/411/255
f 344/412/161 252/331/161 243/398/161
f 278/378/256 292/411/256 293/413/256
f 313/333/161 273/414/161 314/402/161
f 279/381/257 293/413/257 294/396/257
f 291/408/258 305/415/258 306/416/258
f 191/205/192 317/417/192 176/206/192
f 292/411/259 306/418/259 307/419/259
f 72/79/217 346/420/217 64/74/217
f 293/413/260 307/419/260 308/421/260
f 96/110/201 343/422/201 88/105/201
f 294/396/261 308/421/261 309/423/261
f 236/300/182 314/424/182 221/291/182
f 295/397/262 309/423/262 310/425/262
f 104/124/195 342/426/195 96/110/195
f 296/400/263 310/425/263 311/427/263
f 289/401/264 168/5/264 304/428/264
f 251/339/173 313/429/173 236/300/173
f 16/2/197 353/430/197 8/3/197
f 290/405/265 304/428/265 305/415/265
f 112/128/184 333/431/184 104/124/184
f 310/425/266 324/432/266 325/433/266
f 266/351/171 312/434/171 251/339/171
f 311/427/267 325/433/267 326/435/267
f 304/428/268 168/5/268 319/436/268
f 281/387/214 303/437/214 266/351/214
f 120/142/175 332/438/175 112/128/175
f 305/415/269 319/436/269 320/439/269
f 24/21/177 352/440/177 16/2/177
f 306/416/270 320/439/270 321/441/270
f 32/34/167 351/442/167 24/21/167
f 307/419/271 321/443/271 322/444/271
f 296/400/205 302/445/205 281/387/205
f 308/421/272 322/444/272 323/446/272
f 128/148/165 331/447/165 120/147/165
f 309/423/273 323/446/273 324/432/273
f 311/427/188 301/448/188 296/400/188
f 136/164/218 330/449/218 128/148/218
f 322/450/274 336/451/274 337/452/274
f 40/453/220 350/454/220 32/34/220
f 323/455/275 337/456/275 338/457/275
f 326/435/178 300/458/178 311/427/178
f 324/459/276 338/457/276 339/460/276
f 144/167/207 329/461/207 136/164/207
f 325/462/277 339/460/277 340/463/277
f 341/464/169 299/465/169 326/466/169
f 326/466/278 340/463/278 341/464/278
f 319/436/279 168/5/279 334/467/279
f 152/179/199 328/468/199 144/167/199
f 48/56/210 349/469/210 40/40/210
f 320/439/280 334/467/280 335/470/280
f 8/3/222 298/471/222 341/464/222
f 321/441/281 335/470/281 336/451/281
f 88/105/203 344/472/203 80/92/203
f 341/464/282 7/1/282 8/3/282
f 334/467/283 168/5/283 1/4/283
f 176/197/194 318/473/194 160/183/194
f 64/74/224 347/474/224 56/60/224
f 335/470/284 1/4/284 2/8/284
f 160/183/180 327/475/180 152/179/180
f 336/451/285 2/8/285 3/10/285
f 56/60/164 348/476/164 48/56/164
f 337/452/286 3/10/286 4/477/286
f 221/291/187 315/478/187 206/253/187
f 338/457/287 4/13/287 5/15/287
f 206/253/190 316/479/190 191/205/190
f 339/460/288 5/15/288 6/17/288
f 80/92/212 345/480/212 72/79/212
f 340/463/289 6/17/289 7/1/289
f 7/1/290 15/18/290 16/2/290
f 1/4/3 9/6/3 10/7/3
f 2/8/4 10/7/4 11/9/4
f 3/11/5 11/25/5 12/12/5
f 4/13/6 12/12/6 13/14/6
f 5/15/7 13/14/7 14/16/7
f 6/17/8 14/16/8 15/18/8
f 13/14/9 21/27/9 22/19/9
f 14/16/10 22/19/10 23/20/10
f 15/18/11 23/20/11 24/21/11
f 9/6/291 17/22/291 18/23/291
f 10/7/14 18/23/14 19/24/14
f 11/25/15 19/29/15 20/26/15
f 12/12/16 20/26/16 21/27/16
f 18/23/17 26/36/17 27/28/17
f 19/29/18 27/481/18 28/30/18
f 20/26/19 28/30/19 29/31/19
f 21/27/20 29/31/20 30/32/20
f 22/19/21 30/32/21 31/33/21
f 23/20/292 31/33/292 32/34/292
f 17/22/293 25/35/293 26/36/293
f 30/37/25 38/50/25 39/38/25
f 31/39/294 39/38/294 40/40/294
f 25/35/28 33/42/28 34/43/28
f 26/36/29 34/43/29 35/44/29
f 27/45/30 35/51/30 36/46/30
f 28/47/31 36/46/31 37/48/31
f 29/49/32 37/48/32 38/50/32
f 35/51/33 43/65/33 44/52/33
f 36/46/34 44/52/34 45/53/34
f 37/48/35 45/53/35 46/54/35
f 38/50/36 46/54/36 47/55/36
f 39/38/37 47/55/37 48/56/37
f 33/42/295 41/57/295 42/58/295
f 34/43/40 42/58/40 43/59/40
f 47/55/296 55/69/296 56/60/296
f 41/57/297 49/61/297 50/62/297
f 42/63/298 50/77/298 51/64/298
f 43/65/45 51/64/45 52/66/45
f 44/52/46 52/66/46 53/67/46
f 45/53/47 53/67/47 54/68/47
f 46/54/48 54/68/48 55/69/48
f 51/64/49 59/78/49 60/70/49
f 52/66/50 60/70/50 61/71/50
f 53/67/51 61/71/51 62/72/51
f 54/68/52 62/72/52 63/73/52
f 55/69/299 63/73/299 64/74/299
f 49/61/55 57/75/55 58/76/55
f 50/77/300 58/82/300 59/78/300
f 63/73/301 71/87/301 72/79/301
f 57/75/59 65/80/59 66/81/59
f 58/82/60 66/482/60 67/83/60
f 59/78/61 67/83/61 68/84/61
f 60/70/62 68/84/62 69/85/62
f 61/71/63 69/85/63 70/86/63
f 62/72/64 70/86/64 71/87/64
f 69/85/65 68/84/65 76/88/65
f 70/86/66 69/85/66 77/89/66
f 71/87/67 70/86/67 78/90/67
f 72/79/68 71/87/68 79/91/68
f 66/81/70 65/80/70 73/93/70
f 67/83/71 66/482/71 74/95/71
f 68/84/72 67/83/72 75/96/72
f 74/94/74 73/93/74 81/97/74
f 75/96/75 74/95/75 82/99/75
f 76/88/76 75/96/76 83/100/76
f 77/89/77 76/88/77 84/101/77
f 78/90/78 77/89/78 85/102/78
f 79/91/79 78/90/79 86/103/79
f 80/92/302 79/91/302 87/104/302
f 85/102/81 84/101/81 92/106/81
f 86/103/82 85/102/82 93/107/82
f 87/104/83 86/103/83 94/108/83
f 88/105/84 87/104/84 95/109/84
f 82/98/303 81/97/303 89/111/303
f 83/100/304 82/99/304 90/113/304
f 84/101/88 83/100/88 91/114/88
f 90/112/89 89/111/89 97/115/89
f 91/117/90 90/112/90 98/116/90
f 92/106/91 91/114/91 99/119/91
f 93/107/92 92/106/92 100/120/92
f 94/108/93 93/107/93 101/121/93
f 95/109/94 94/108/94 102/122/94
f 96/110/305 95/109/305 103/123/305
f 102/122/97 101/121/97 109/125/97
f 103/123/98 102/122/98 110/126/98
f 104/124/306 103/123/306 111/127/306
f 98/116/307 97/115/307 105/129/307
f 99/118/102 98/116/102 106/130/102
f 100/120/103 99/119/103 107/132/103
f 101/121/104 100/120/104 108/133/104
f 107/131/308 106/130/308 114/134/308
f 108/136/106 107/131/106 115/135/106
f 109/125/107 108/133/107 116/138/107
f 110/126/108 109/125/108 117/139/108
f 111/127/109 110/126/109 118/140/109
f 112/128/309 111/127/309 119/141/309
f 106/130/310 105/129/310 113/143/310
f 119/144/113 118/156/113 126/145/113
f 120/147/114 119/144/114 127/146/114
f 114/134/116 113/143/116 121/149/116
f 115/135/117 114/134/117 122/150/117
f 116/137/118 115/135/118 123/151/118
f 117/153/119 116/483/119 124/154/119
f 118/156/120 117/153/120 125/155/120
f 123/151/121 122/150/121 130/157/121
f 124/154/122 123/484/122 131/159/122
f 125/155/123 124/154/123 132/160/123
f 126/145/124 125/155/124 133/161/124
f 127/146/125 126/145/125 134/162/125
f 128/148/126 127/146/126 135/163/126
f 122/150/128 121/149/128 129/165/128
f 134/162/129 142/173/129 143/166/129
f 135/163/311 143/166/311 144/167/311
f 129/165/132 137/168/132 138/169/132
f 130/157/133 138/169/133 139/170/133
f 131/159/134 139/174/134 140/171/134
f 132/160/135 140/171/135 141/172/135
f 133/161/136 141/172/136 142/173/136
f 139/174/137 147/187/137 148/175/137
f 140/171/138 148/175/138 149/176/138
f 141/172/139 149/176/139 150/177/139
f 142/173/140 150/177/140 151/178/140
f 143/166/312 151/178/312 152/179/312
f 137/168/143 145/180/143 146/181/143
f 138/169/144 146/181/144 147/182/144
f 151/178/313 159/191/313 160/183/313
f 145/180/314 153/184/314 154/185/314
f 146/181/148 154/185/148 155/186/148
f 147/187/149 155/192/149 156/188/149
f 148/175/150 156/188/150 157/189/150
f 149/176/151 157/189/151 158/190/151
f 150/177/152 158/190/152 159/191/152
f 155/192/153 171/485/153 172/193/153
f 156/188/154 172/193/154 173/194/154
f 157/189/155 173/194/155 174/195/155
f 158/190/156 174/195/156 175/196/156
f 159/191/157 175/196/157 176/197/157
f 153/184/159 169/198/159 170/199/159
f 154/185/160 170/199/160 171/200/160
f 161/486/161 225/487/161 224/488/161
f 224/488/161 223/489/161 161/486/161
f 223/489/161 222/203/161 162/202/161
f 161/486/161 223/489/161 162/202/161
f 222/203/161 213/490/161 164/491/161
f 213/490/161 212/492/161 165/493/161
f 212/492/161 211/494/161 165/493/161
f 211/494/161 210/495/161 166/496/161
f 165/493/161 211/494/161 166/496/161
f 210/495/161 209/497/161 177/498/161
f 209/497/161 208/499/161 178/500/161
f 208/499/161 207/501/161 178/500/161
f 207/501/161 198/502/161 179/503/161
f 178/500/161 207/501/161 179/503/161
f 198/502/161 197/504/161 181/505/161
f 197/504/161 196/506/161 182/507/161
f 196/506/161 195/508/161 182/507/161
f 195/508/161 194/509/161 183/510/161
f 182/507/161 195/508/161 183/510/161
f 194/509/161 193/511/161 192/512/161
f 192/512/161 183/510/161 194/509/161
f 182/507/161 181/505/161 197/504/161
f 181/505/161 180/513/161 198/502/161
f 180/513/161 179/503/161 198/502/161
f 178/500/161 177/498/161 209/497/161
f 177/498/161 167/514/161 210/495/161
f 167/514/161 166/496/161 210/495/161
f 165/493/161 164/491/161 213/490/161
f 164/491/161 163/201/161 222/203/161
f 175/204/162 190/237/162 191/205/162
f 240/208/164 211/312/164 212/209/164
f 257/211/165 194/304/165 195/212/165
f 169/198/315 184/207/315 185/214/315
f 237/215/167 222/307/167 223/216/167
f 170/199/168 185/214/168 186/218/168
f 297/219/169 161/310/169 162/220/169
f 171/222/170 186/265/170 187/223/170
f 284/225/171 166/299/171 167/226/171
f 172/224/172 187/223/172 188/228/172
f 283/227/173 167/226/173 177/230/173
f 173/229/174 188/228/174 189/232/174
f 256/234/175 195/515/175 196/235/175
f 174/233/176 189/232/176 190/237/176
f 228/217/177 223/216/177 224/238/177
f 288/240/178 162/516/178 163/241/178
f 187/223/179 202/266/179 203/243/179
f 269/244/180 182/268/180 183/245/180
f 188/228/181 203/243/181 204/247/181
f 282/231/182 177/230/182 178/248/182
f 189/232/183 204/247/183 205/250/183
f 255/236/184 196/235/184 197/251/184
f 190/237/316 205/250/316 206/253/316
f 273/249/187 178/248/187 179/255/187
f 287/242/188 163/241/188 164/257/188
f 184/207/317 199/254/317 200/259/317
f 272/256/190 179/255/190 180/260/190
f 185/214/318 200/259/318 201/262/318
f 271/261/192 180/260/192 181/263/192
f 186/265/193 201/276/193 202/266/193
f 270/267/194 181/517/194 182/268/194
f 254/252/195 197/251/195 198/269/195
f 199/254/196 214/292/196 215/271/196
f 227/239/197 224/238/197 225/272/197
f 200/274/198 215/308/198 216/275/198
f 268/246/199 183/245/199 192/277/199
f 201/276/200 216/275/200 217/279/200
f 253/270/201 198/269/201 207/280/201
f 202/266/202 217/279/202 218/282/202
f 252/281/203 207/280/203 208/283/203
f 203/243/204 218/282/204 219/285/204
f 286/258/205 164/257/205 165/286/205
f 204/247/206 219/285/206 220/288/206
f 267/278/207 192/277/207 193/289/207
f 205/250/208 220/288/208 221/291/208
f 239/210/210 212/209/210 213/293/210
f 218/282/211 233/313/211 234/295/211
f 243/284/212 208/283/212 209/296/212
f 219/285/213 234/295/213 235/298/213
f 285/287/214 165/286/214 166/299/214
f 220/288/215 235/298/215 236/300/215
f 242/297/217 209/296/217 210/302/217
f 258/290/218 193/289/218 194/304/218
f 214/292/219 229/301/219 230/305/219
f 238/306/220 213/518/220 222/307/220
f 215/308/221 230/519/221 231/309/221
f 226/273/222 225/272/222 161/310/222
f 216/275/223 231/309/223 232/311/223
f 241/303/224 210/302/224 211/312/224
f 217/279/225 232/311/225 233/313/225
f 230/305/226 229/301/226 244/314/226
f 349/316/161 238/338/161 237/317/161
f 231/309/227 230/519/227 245/319/227
f 327/321/161 268/341/161 267/322/161
f 232/311/228 231/309/228 246/320/228
f 299/325/161 298/342/161 297/326/161
f 233/313/229 232/311/229 247/324/229
f 343/329/161 342/349/161 253/330/161
f 234/295/230 233/313/230 248/328/230
f 313/333/161 312/353/161 283/334/161
f 235/298/231 234/295/231 249/332/231
f 348/337/161 239/356/161 238/338/161
f 236/300/319 235/298/319 250/336/319
f 318/340/161 269/359/161 268/341/161
f 298/342/161 353/347/161 226/343/161
f 249/332/234 248/328/234 263/344/234
f 352/346/161 227/377/161 226/343/161
f 250/336/235 249/332/235 264/345/235
f 342/349/161 333/362/161 254/350/161
f 251/339/320 250/336/320 265/348/320
f 312/353/161 303/365/161 284/354/161
f 347/355/161 240/368/161 239/356/161
f 245/315/238 244/314/238 259/352/238
f 317/358/161 270/374/161 269/359/161
f 246/320/239 245/319/239 260/360/239
f 333/362/161 332/369/161 255/363/161
f 247/324/240 246/320/240 261/361/240
f 303/365/161 302/382/161 285/366/161
f 248/328/241 247/324/241 262/364/241
f 346/367/161 241/386/161 240/368/161
f 332/369/161 331/379/161 256/370/161
f 261/361/321 260/360/321 275/371/321
f 316/373/161 271/390/161 270/374/161
f 262/364/243 261/361/243 276/372/243
f 351/376/161 228/404/161 227/377/161
f 263/344/244 262/364/244 277/375/244
f 331/379/161 330/391/161 257/380/161
f 264/345/245 263/344/245 278/378/245
f 302/382/161 301/394/161 286/383/161
f 265/348/246 264/345/246 279/381/246
f 345/385/161 242/399/161 241/386/161
f 266/351/322 265/348/322 280/384/322
f 315/389/161 272/403/161 271/390/161
f 330/391/161 329/406/161 258/392/161
f 260/357/323 259/352/323 274/388/323
f 301/394/161 300/409/161 287/395/161
f 280/384/250 279/381/250 294/396/250
f 345/385/161 344/412/161 243/398/161
f 281/387/251 280/384/251 295/397/251
f 314/402/161 273/414/161 272/403/161
f 350/318/161 237/317/161 228/404/161
f 275/393/253 274/388/253 289/401/253
f 328/323/161 267/322/161 258/392/161
f 276/407/254 275/393/254 290/405/254
f 300/409/161 299/325/161 288/327/161
f 277/375/255 276/372/255 291/410/255
f 344/412/161 343/329/161 252/331/161
f 278/378/256 277/375/256 292/411/256
f 313/333/161 282/335/161 273/414/161
f 279/381/257 278/378/257 293/413/257
f 291/408/258 290/405/258 305/415/258
f 191/205/192 316/479/192 317/417/192
f 292/411/259 291/410/259 306/418/259
f 72/79/217 345/480/217 346/420/217
f 293/413/260 292/411/260 307/419/260
f 96/110/201 342/426/201 343/422/201
f 294/396/261 293/413/261 308/421/261
f 236/300/182 313/429/182 314/424/182
f 295/397/262 294/396/262 309/423/262
f 104/124/195 333/431/195 342/426/195
f 296/400/263 295/397/263 310/425/263
f 251/339/173 312/434/173 313/429/173
f 16/2/197 352/440/197 353/430/197
f 290/405/265 289/401/265 304/428/265
f 112/128/184 332/438/184 333/431/184
f 310/425/266 309/423/266 324/432/266
f 266/351/171 303/437/171 312/434/171
f 311/427/324 310/425/324 325/433/324
f 281/387/214 302/445/214 303/437/214
f 120/142/175 331/520/175 332/438/175
f 305/415/325 304/428/325 319/436/325
f 24/21/177 351/442/177 352/440/177
f 306/416/270 305/415/270 320/439/270
f 32/34/167 350/454/167 351/442/167
f 307/419/271 306/418/271 321/443/271
f 296/400/205 301/448/205 302/445/205
f 308/421/272 307/419/272 322/444/272
f 128/148/165 330/449/165 331/447/165
f 309/423/273 308/421/273 323/446/273
f 311/427/188 300/458/188 301/448/188
f 136/164/218 329/461/218 330/449/218
f 322/450/274 321/441/274 336/451/274
f 40/453/220 349/521/220 350/454/220
f 323/455/275 322/522/275 337/456/275
f 326/435/178 299/523/178 300/458/178
f 324/459/276 323/455/276 338/457/276
f 144/167/207 328/468/207 329/461/207
f 325/462/277 324/459/277 339/460/277
f 341/464/169 298/471/169 299/465/169
f 326/466/278 325/462/278 340/463/278
f 152/179/199 327/475/199 328/468/199
f 48/56/210 348/476/210 349/469/210
f 320/439/280 319/436/280 334/467/280
f 8/3/222 353/430/222 298/471/222
f 321/441/281 320/439/281 335/470/281
f 88/105/203 343/422/203 344/472/203
f 341/464/326 340/463/326 7/1/326
f 176/197/194 317/524/194 318/473/194
f 64/74/224 346/420/224 347/474/224
f 335/470/284 334/467/284 1/4/284
f 160/183/180 318/473/180 327/475/180
f 336/451/285 335/470/285 2/8/285
f 56/60/164 347/474/164 348/476/164
f 337/452/286 336/451/286 3/10/286
f 221/291/187 314/424/187 315/478/187
f 338/457/287 337/456/287 4/13/287
f 206/253/190 315/478/190 316/479/190
f 339/460/288 338/457/288 5/15/288
f 80/92/212 344/472/212 345/480/212
f 340/463/289 339/460/289 6/17/289
